<?xml version="1.0" encoding="utf-8"?>
<!-- Generator: Adobe Illustrator 22.0.1, SVG Export Plug-In . SVG Version: 6.00 Build 0)  -->
<svg version="1.1" id="Layer_1" xmlns="http://www.w3.org/2000/svg" xmlns:xlink="http://www.w3.org/1999/xlink" x="0px" y="0px"
	 viewBox="0 0 216 151.2" enable-background="new 0 0 216 151.2" xml:space="preserve">
<g>
	<g>
		
			<linearGradient id="SVGID_1_" gradientUnits="userSpaceOnUse" x1="-299.7846" y1="486.6722" x2="-299.6306" y2="486.5183" gradientTransform="matrix(127 0 0 -63 38269.9766 30807.0176)">
			<stop  offset="0" style="stop-color:#021C52"/>
			<stop  offset="1" style="stop-color:#02194E"/>
		</linearGradient>
		<polygon fill="url(#SVGID_1_)" points="198.4,151.2 211,151.2 211.1,149.5 		"/>
		
			<linearGradient id="SVGID_2_" gradientUnits="userSpaceOnUse" x1="-294.258" y1="477.0392" x2="-294.1042" y2="476.8854" gradientTransform="matrix(117 0 0 -80 34487.9766 38201.0195)">
			<stop  offset="0" style="stop-color:#BFECA6"/>
			<stop  offset="1" style="stop-color:#A5DAA4"/>
		</linearGradient>
		<polygon fill="url(#SVGID_2_)" points="75.5,39.5 57.5,45.4 68.4,51.8 		"/>
		
			<linearGradient id="SVGID_3_" gradientUnits="userSpaceOnUse" x1="-293.502" y1="476.9945" x2="-293.3482" y2="476.8407" gradientTransform="matrix(179 0 0 -80 52600.9609 38201.0195)">
			<stop  offset="0" style="stop-color:#ACE4A6"/>
			<stop  offset="1" style="stop-color:#7FC5A4"/>
		</linearGradient>
		<polygon fill="url(#SVGID_3_)" points="75.5,39.5 68.4,51.8 95.9,47.2 		"/>
		
			<linearGradient id="SVGID_4_" gradientUnits="userSpaceOnUse" x1="-293.0328" y1="477.1938" x2="-292.879" y2="477.04" gradientTransform="matrix(132 0 0 -201 38720.9648 95956.0547)">
			<stop  offset="0" style="stop-color:#8ED1A6"/>
			<stop  offset="1" style="stop-color:#96CCA4"/>
		</linearGradient>
		<polygon fill="url(#SVGID_4_)" points="57.5,45.4 37.2,51.8 51,76.3 		"/>
		
			<linearGradient id="SVGID_5_" gradientUnits="userSpaceOnUse" x1="-312.1443" y1="487.8379" x2="-311.9905" y2="487.6841" gradientTransform="matrix(51 0 0 -54 16102.9854 26489.0176)">
			<stop  offset="0" style="stop-color:#022057"/>
			<stop  offset="1" style="stop-color:#03245A"/>
		</linearGradient>
		<polygon fill="url(#SVGID_5_)" points="187,151.2 190.5,151.2 183.7,145.6 		"/>
		
			<linearGradient id="SVGID_6_" gradientUnits="userSpaceOnUse" x1="-297.9397" y1="473.6329" x2="-297.7859" y2="473.4791" gradientTransform="matrix(97 0 0 -51 29008.9785 24164.0156)">
			<stop  offset="0" style="stop-color:#B3E6A6"/>
			<stop  offset="1" style="stop-color:#A3DDA6"/>
		</linearGradient>
		<polygon fill="url(#SVGID_6_)" points="124.8,12.2 109.9,8.2 113.2,16 		"/>
		
			<linearGradient id="SVGID_7_" gradientUnits="userSpaceOnUse" x1="-297.952" y1="475.306" x2="-297.7982" y2="475.1523" gradientTransform="matrix(97 0 0 -181 29008.9785 86019.0469)">
			<stop  offset="0" style="stop-color:#8BCDA6"/>
			<stop  offset="1" style="stop-color:#9BD8A6"/>
		</linearGradient>
		<polygon fill="url(#SVGID_7_)" points="124.8,12.2 121.9,0 112.7,0 109.9,8.2 		"/>
		
			<linearGradient id="SVGID_8_" gradientUnits="userSpaceOnUse" x1="-298.4475" y1="473.6615" x2="-298.2937" y2="473.5077" gradientTransform="matrix(83 0 0 -51 24872.9805 24164.0156)">
			<stop  offset="0" style="stop-color:#BEEBA6"/>
			<stop  offset="1" style="stop-color:#B5E7A6"/>
		</linearGradient>
		<polygon fill="url(#SVGID_8_)" points="109.9,8.2 100.4,10.5 113.2,16 		"/>
		
			<linearGradient id="SVGID_9_" gradientUnits="userSpaceOnUse" x1="-290.7795" y1="477.6467" x2="-290.6257" y2="477.4929" gradientTransform="matrix(293 0 0 -208 85178.8438 99411.0547)">
			<stop  offset="0" style="stop-color:#28778A"/>
			<stop  offset="1" style="stop-color:#498E92"/>
		</linearGradient>
		<polygon fill="url(#SVGID_9_)" points="0,66.6 0,94.5 21.8,69.8 		"/>
		
			<linearGradient id="SVGID_10_" gradientUnits="userSpaceOnUse" x1="-294.2411" y1="484.5862" x2="-294.0873" y2="484.4324" gradientTransform="matrix(100 0 0 -49 29471.9785 23851.0156)">
			<stop  offset="0" style="stop-color:#206C84"/>
			<stop  offset="1" style="stop-color:#1F6C84"/>
		</linearGradient>
		<polygon fill="url(#SVGID_10_)" points="50.7,114.3 62.2,106.7 46.9,108.9 		"/>
		
			<linearGradient id="SVGID_11_" gradientUnits="userSpaceOnUse" x1="-293.8041" y1="476.3631" x2="-293.6503" y2="476.2093" gradientTransform="matrix(117 0 0 -164 34422.9766 78143.0391)">
			<stop  offset="0" style="stop-color:#479496"/>
			<stop  offset="1" style="stop-color:#7DBC9F"/>
		</linearGradient>
		<polygon fill="url(#SVGID_11_)" points="65.5,31.7 47.5,20.2 57.5,45.4 		"/>
		
			<linearGradient id="SVGID_12_" gradientUnits="userSpaceOnUse" x1="-294.2993" y1="476.5106" x2="-294.1454" y2="476.3568" gradientTransform="matrix(117 0 0 -89 34487.9766 42443.0195)">
			<stop  offset="0" style="stop-color:#9FD8A6"/>
			<stop  offset="1" style="stop-color:#67AF9F"/>
		</linearGradient>
		<polygon fill="url(#SVGID_12_)" points="65.5,31.7 57.5,45.4 75.5,39.5 		"/>
		
			<linearGradient id="SVGID_13_" gradientUnits="userSpaceOnUse" x1="-297.5372" y1="475.7745" x2="-297.3835" y2="475.6208" gradientTransform="matrix(179 0 0 -164 53455.9609 78033.0391)">
			<stop  offset="0" style="stop-color:#023567"/>
			<stop  offset="1" style="stop-color:#103F66"/>
		</linearGradient>
		<polygon fill="url(#SVGID_13_)" points="203.6,28.5 216,15.3 216,7.4 199.9,13.2 		"/>
		
			<linearGradient id="SVGID_14_" gradientUnits="userSpaceOnUse" x1="-295.4592" y1="475.7461" x2="-295.3054" y2="475.5923" gradientTransform="matrix(269 0 0 -164 79669.9375 78033.0391)">
			<stop  offset="0" style="stop-color:#021D50"/>
			<stop  offset="1" style="stop-color:#10486F"/>
		</linearGradient>
		<polygon fill="url(#SVGID_14_)" points="216,27.9 216,15.3 203.6,28.5 		"/>
		
			<linearGradient id="SVGID_15_" gradientUnits="userSpaceOnUse" x1="-303.4442" y1="492.7892" x2="-303.2905" y2="492.6356" gradientTransform="matrix(99 0 0 -37 30248.9785 18380.0039)">
			<stop  offset="0" style="stop-color:#021E52"/>
			<stop  offset="1" style="stop-color:#021A4E"/>
		</linearGradient>
		<polygon fill="url(#SVGID_15_)" points="216,150.1 216,148.3 211.1,149.5 		"/>
		
			<linearGradient id="SVGID_16_" gradientUnits="userSpaceOnUse" x1="-295.0829" y1="479.201" x2="-294.9291" y2="479.0471" gradientTransform="matrix(209 0 0 -183 61819.957 87802.0469)">
			<stop  offset="0" style="stop-color:#3B7C8C"/>
			<stop  offset="1" style="stop-color:#30788B"/>
		</linearGradient>
		<polygon fill="url(#SVGID_16_)" points="143.6,125.8 161.7,140 175.7,111.8 		"/>
		
			<linearGradient id="SVGID_17_" gradientUnits="userSpaceOnUse" x1="-296.8185" y1="479.1643" x2="-296.6647" y2="479.0105" gradientTransform="matrix(165 0 0 -183 49133.9609 87802.0469)">
			<stop  offset="0" style="stop-color:#438E95"/>
			<stop  offset="1" style="stop-color:#176483"/>
		</linearGradient>
		<polygon fill="url(#SVGID_17_)" points="175.7,111.8 161.7,140 187.1,126 		"/>
		
			<linearGradient id="SVGID_18_" gradientUnits="userSpaceOnUse" x1="-296.79" y1="480.738" x2="-296.6362" y2="480.5842" gradientTransform="matrix(165 0 0 -128 49133.9609 61659.0352)">
			<stop  offset="0" style="stop-color:#023A6B"/>
			<stop  offset="1" style="stop-color:#08537B"/>
		</linearGradient>
		<polygon fill="url(#SVGID_18_)" points="161.7,140 183.7,145.6 187.1,126 		"/>
		
			<linearGradient id="SVGID_19_" gradientUnits="userSpaceOnUse" x1="-299.5891" y1="480.6954" x2="-299.4354" y2="480.5416" gradientTransform="matrix(126 0 0 -128 37927.9766 61659.0352)">
			<stop  offset="0" style="stop-color:#033669"/>
			<stop  offset="1" style="stop-color:#094874"/>
		</linearGradient>
		<polygon fill="url(#SVGID_19_)" points="183.7,145.6 203.1,143.3 187.1,126 		"/>
		
			<linearGradient id="SVGID_20_" gradientUnits="userSpaceOnUse" x1="-299.5403" y1="487.0645" x2="-299.3864" y2="486.9106" gradientTransform="matrix(126 0 0 -57 37927.9766 27905.0176)">
			<stop  offset="0" style="stop-color:#032C63"/>
			<stop  offset="1" style="stop-color:#03285F"/>
		</linearGradient>
		<polygon fill="url(#SVGID_20_)" points="183.7,145.6 190.5,151.2 192.8,151.2 203.1,143.3 		"/>
		
			<linearGradient id="SVGID_21_" gradientUnits="userSpaceOnUse" x1="-300.8477" y1="480.662" x2="-300.6939" y2="480.5082" gradientTransform="matrix(111 0 0 -128 33584.9766 61644.0352)">
			<stop  offset="0" style="stop-color:#0C5D80"/>
			<stop  offset="1" style="stop-color:#044A76"/>
		</linearGradient>
		<polygon fill="url(#SVGID_21_)" points="187.1,126 203.1,143.3 204.2,123.7 		"/>
		
			<linearGradient id="SVGID_22_" gradientUnits="userSpaceOnUse" x1="-299.8391" y1="487.0374" x2="-299.6853" y2="486.8836" gradientTransform="matrix(127 0 0 -57 38269.9766 27905.0176)">
			<stop  offset="0" style="stop-color:#022158"/>
			<stop  offset="1" style="stop-color:#02265D"/>
		</linearGradient>
		<polygon fill="url(#SVGID_22_)" points="203.1,143.3 192.8,151.2 198.4,151.2 211.1,149.5 		"/>
		
			<linearGradient id="SVGID_23_" gradientUnits="userSpaceOnUse" x1="-292.94" y1="476.5197" x2="-292.7862" y2="476.3658" gradientTransform="matrix(139 0 0 -176 40750.9648 83897.0391)">
			<stop  offset="0" style="stop-color:#96CAA3"/>
			<stop  offset="1" style="stop-color:#9FD4A3"/>
		</linearGradient>
		<polygon fill="url(#SVGID_23_)" points="57.5,45.4 36.1,24.8 37.2,51.8 		"/>
		
			<linearGradient id="SVGID_24_" gradientUnits="userSpaceOnUse" x1="-292.8991" y1="476.3723" x2="-292.7453" y2="476.2185" gradientTransform="matrix(139 0 0 -164 40750.9648 78143.0391)">
			<stop  offset="0" style="stop-color:#4A9797"/>
			<stop  offset="1" style="stop-color:#84C2A1"/>
		</linearGradient>
		<polygon fill="url(#SVGID_24_)" points="47.5,20.2 36.1,24.8 57.5,45.4 		"/>
		
			<linearGradient id="SVGID_25_" gradientUnits="userSpaceOnUse" x1="-297.8857" y1="475.0267" x2="-297.732" y2="474.873" gradientTransform="matrix(93 0 0 -155 27804.9805 73617.0391)">
			<stop  offset="0" style="stop-color:#97D5A6"/>
			<stop  offset="1" style="stop-color:#8DCDA7"/>
		</linearGradient>
		<polygon fill="url(#SVGID_25_)" points="112.7,0 105.7,0 109.9,8.2 		"/>
		
			<linearGradient id="SVGID_26_" gradientUnits="userSpaceOnUse" x1="-296.6602" y1="475.812" x2="-296.5064" y2="475.6582" gradientTransform="matrix(182 0 0 -165 54170.9609 78509.0391)">
			<stop  offset="0" style="stop-color:#034370"/>
			<stop  offset="1" style="stop-color:#105A7B"/>
		</linearGradient>
		<polygon fill="url(#SVGID_26_)" points="199.9,13.2 175.6,3.1 203.6,28.5 		"/>
		
			<linearGradient id="SVGID_27_" gradientUnits="userSpaceOnUse" x1="-294.2808" y1="478.2617" x2="-294.127" y2="478.1079" gradientTransform="matrix(252 0 0 -208 74289.9375 99571.0547)">
			<stop  offset="0" style="stop-color:#9FDAA6"/>
			<stop  offset="1" style="stop-color:#63A89D"/>
		</linearGradient>
		<polygon fill="url(#SVGID_27_)" points="142.8,119.8 175.7,111.8 137,87.8 		"/>
		
			<linearGradient id="SVGID_28_" gradientUnits="userSpaceOnUse" x1="-294.9854" y1="481.3875" x2="-294.8317" y2="481.2338" gradientTransform="matrix(214 0 0 -91 63269.957 43918.0195)">
			<stop  offset="0" style="stop-color:#519094"/>
			<stop  offset="1" style="stop-color:#599D99"/>
		</linearGradient>
		<polygon fill="url(#SVGID_28_)" points="142.8,119.8 143.6,125.8 175.7,111.8 		"/>
		
			<linearGradient id="SVGID_29_" gradientUnits="userSpaceOnUse" x1="-300.9386" y1="477.3663" x2="-300.7848" y2="477.2125" gradientTransform="matrix(58 0 0 -108 17546.9844 51602.0234)">
			<stop  offset="0" style="stop-color:#AFE6A7"/>
			<stop  offset="1" style="stop-color:#96D7A6"/>
		</linearGradient>
		<polygon fill="url(#SVGID_29_)" points="101.5,46.5 95.9,47.2 92.5,63.1 		"/>
		
			<linearGradient id="SVGID_30_" gradientUnits="userSpaceOnUse" x1="-303.7477" y1="480.6207" x2="-303.594" y2="480.4669" gradientTransform="matrix(93 0 0 -128 28450.9805 61644.0352)">
			<stop  offset="0" style="stop-color:#03396D"/>
			<stop  offset="1" style="stop-color:#04527C"/>
		</linearGradient>
		<polygon fill="url(#SVGID_30_)" points="203.1,143.3 216,127.4 216,125.4 204.2,123.7 		"/>
		
			<linearGradient id="SVGID_31_" gradientUnits="userSpaceOnUse" x1="-303.7371" y1="480.0702" x2="-303.5833" y2="479.9164" gradientTransform="matrix(93 0 0 -155 28450.9805 74536.0391)">
			<stop  offset="0" style="stop-color:#023167"/>
			<stop  offset="1" style="stop-color:#023769"/>
		</linearGradient>
		<polygon fill="url(#SVGID_31_)" points="211.1,149.5 216,131 216,127.4 203.1,143.3 		"/>
		
			<linearGradient id="SVGID_32_" gradientUnits="userSpaceOnUse" x1="-303.4474" y1="480.0321" x2="-303.2935" y2="479.8782" gradientTransform="matrix(99 0 0 -155 30248.9785 74536.0391)">
			<stop  offset="0" style="stop-color:#02245A"/>
			<stop  offset="1" style="stop-color:#023264"/>
		</linearGradient>
		<polygon fill="url(#SVGID_32_)" points="216,148.3 216,131 211.1,149.5 		"/>
		
			<linearGradient id="SVGID_33_" gradientUnits="userSpaceOnUse" x1="-291.1322" y1="475.8877" x2="-290.9784" y2="475.734" gradientTransform="matrix(253 0 0 -196 73650.9375 93273.0547)">
			<stop  offset="0" style="stop-color:#2F768B"/>
			<stop  offset="1" style="stop-color:#5F9495"/>
		</linearGradient>
		<polygon fill="url(#SVGID_33_)" points="0,0.1 0,29.2 32.9,2.9 		"/>
		
			<linearGradient id="SVGID_34_" gradientUnits="userSpaceOnUse" x1="-291.1539" y1="473.8879" x2="-291.0001" y2="473.7342" gradientTransform="matrix(253 0 0 -89 73650.9375 42167.0195)">
			<stop  offset="0" style="stop-color:#2A748B"/>
			<stop  offset="1" style="stop-color:#659A98"/>
		</linearGradient>
		<polygon fill="url(#SVGID_34_)" points="29.4,0 0,0 0,0.1 32.9,2.9 		"/>
		
			<linearGradient id="SVGID_35_" gradientUnits="userSpaceOnUse" x1="-291.2686" y1="475.8486" x2="-291.1148" y2="475.6948" gradientTransform="matrix(239 0 0 -174 69611.9453 82801.0391)">
			<stop  offset="0" style="stop-color:#599395"/>
			<stop  offset="1" style="stop-color:#6CA89D"/>
		</linearGradient>
		<polygon fill="url(#SVGID_35_)" points="32.9,2.9 0,29.2 0,29.6 36.1,24.8 		"/>
		
			<linearGradient id="SVGID_36_" gradientUnits="userSpaceOnUse" x1="-293.6337" y1="475.5707" x2="-293.4799" y2="475.4169" gradientTransform="matrix(95 0 0 -142 27925.9805 67537.0391)">
			<stop  offset="0" style="stop-color:#428F94"/>
			<stop  offset="1" style="stop-color:#478C93"/>
		</linearGradient>
		<polygon fill="url(#SVGID_36_)" points="32.9,2.9 36.1,24.8 47.5,20.2 		"/>
		
			<linearGradient id="SVGID_37_" gradientUnits="userSpaceOnUse" x1="-295.1096" y1="476.5191" x2="-294.9558" y2="476.3653" gradientTransform="matrix(153 0 0 -111 45249.9648 52926.0234)">
			<stop  offset="0" style="stop-color:#9CD6A6"/>
			<stop  offset="1" style="stop-color:#98D4A6"/>
		</linearGradient>
		<polygon fill="url(#SVGID_37_)" points="111,30 101.5,46.5 125,47.1 		"/>
		
			<linearGradient id="SVGID_38_" gradientUnits="userSpaceOnUse" x1="-293.9878" y1="478.5879" x2="-293.834" y2="478.4341" gradientTransform="matrix(275 0 0 -126 80982.9375 60378.0352)">
			<stop  offset="0" style="stop-color:#B2E6A7"/>
			<stop  offset="1" style="stop-color:#92D1A6"/>
		</linearGradient>
		<polygon fill="url(#SVGID_38_)" points="137,87.8 179.3,95.1 160.8,75.7 		"/>
		
			<linearGradient id="SVGID_39_" gradientUnits="userSpaceOnUse" x1="-293.9618" y1="478.7367" x2="-293.808" y2="478.5829" gradientTransform="matrix(275 0 0 -156 80982.9375 74767.0391)">
			<stop  offset="0" style="stop-color:#A6E1A6"/>
			<stop  offset="1" style="stop-color:#74BCA3"/>
		</linearGradient>
		<polygon fill="url(#SVGID_39_)" points="137,87.8 175.7,111.8 179.3,95.1 		"/>
		
			<linearGradient id="SVGID_40_" gradientUnits="userSpaceOnUse" x1="-297.1898" y1="475.3205" x2="-297.0359" y2="475.1667" gradientTransform="matrix(116 0 0 -181 34590.9766 86019.0469)">
			<stop  offset="0" style="stop-color:#94D4A7"/>
			<stop  offset="1" style="stop-color:#9CDBA6"/>
		</linearGradient>
		<polygon fill="url(#SVGID_40_)" points="134.8,0 121.9,0 124.8,12.2 		"/>
		
			<linearGradient id="SVGID_41_" gradientUnits="userSpaceOnUse" x1="-294.8285" y1="476.2039" x2="-294.6747" y2="476.0501" gradientTransform="matrix(111 0 0 -53 32793.9766 25269.0156)">
			<stop  offset="0" style="stop-color:#5CA59C"/>
			<stop  offset="1" style="stop-color:#7DBFA2"/>
		</linearGradient>
		<polygon fill="url(#SVGID_41_)" points="82.5,31.4 65.5,31.7 75.5,39.5 		"/>
		
			<linearGradient id="SVGID_42_" gradientUnits="userSpaceOnUse" x1="-294.6343" y1="476.5726" x2="-294.4805" y2="476.4188" gradientTransform="matrix(133 0 0 -103 39260.9648 49119.0234)">
			<stop  offset="0" style="stop-color:#75BDA3"/>
			<stop  offset="1" style="stop-color:#8DCFA6"/>
		</linearGradient>
		<polygon fill="url(#SVGID_42_)" points="95.9,47.2 82.5,31.4 75.5,39.5 		"/>
		
			<linearGradient id="SVGID_43_" gradientUnits="userSpaceOnUse" x1="-297.6019" y1="479.8765" x2="-297.4481" y2="479.7227" gradientTransform="matrix(115 0 0 -166 34350.9766 79784.0391)">
			<stop  offset="0" style="stop-color:#024170"/>
			<stop  offset="1" style="stop-color:#16456B"/>
		</linearGradient>
		<polygon fill="url(#SVGID_43_)" points="125.9,137.3 129.3,151.2 129.4,151.2 143.6,125.8 		"/>
		
			<linearGradient id="SVGID_44_" gradientUnits="userSpaceOnUse" x1="-294.7114" y1="479.848" x2="-294.5576" y2="479.6942" gradientTransform="matrix(211 0 0 -166 62308.957 79784.0391)">
			<stop  offset="0" style="stop-color:#206381"/>
			<stop  offset="1" style="stop-color:#023866"/>
		</linearGradient>
		<polygon fill="url(#SVGID_44_)" points="143.6,125.8 129.4,151.2 129.7,151.2 161.7,140 		"/>
		
			<linearGradient id="SVGID_45_" gradientUnits="userSpaceOnUse" x1="-294.8571" y1="481.2328" x2="-294.7032" y2="481.0789" gradientTransform="matrix(165 0 0 -128 48757.9609 61733.0352)">
			<stop  offset="0" style="stop-color:#032F5E"/>
			<stop  offset="1" style="stop-color:#032556"/>
		</linearGradient>
		<polygon fill="url(#SVGID_45_)" points="110.4,151.2 129.3,151.2 125.9,137.3 		"/>
		
			<linearGradient id="SVGID_46_" gradientUnits="userSpaceOnUse" x1="-291.424" y1="476.361" x2="-291.2702" y2="476.2072" gradientTransform="matrix(160 0 0 -86 46622.9609 40999.0195)">
			<stop  offset="0" style="stop-color:#45798A"/>
			<stop  offset="1" style="stop-color:#4D8D93"/>
		</linearGradient>
		<polygon fill="url(#SVGID_46_)" points="24,40.5 0,30 0,32.5 2.4,42.9 		"/>
		
			<linearGradient id="SVGID_47_" gradientUnits="userSpaceOnUse" x1="-291.2408" y1="476.2443" x2="-291.0869" y2="476.0905" gradientTransform="matrix(239 0 0 -102 69611.9453 48599.0234)">
			<stop  offset="0" style="stop-color:#6FA69B"/>
			<stop  offset="1" style="stop-color:#78B8A2"/>
		</linearGradient>
		<polygon fill="url(#SVGID_47_)" points="36.1,24.8 0,29.6 0,30 24,40.5 		"/>
		
			<linearGradient id="SVGID_48_" gradientUnits="userSpaceOnUse" x1="-291.5408" y1="477.0692" x2="-291.3871" y2="476.9155" gradientTransform="matrix(140 0 0 -191 40822.9648 91154.0469)">
			<stop  offset="0" style="stop-color:#3F8C95"/>
			<stop  offset="1" style="stop-color:#68AC9F"/>
		</linearGradient>
		<polygon fill="url(#SVGID_48_)" points="2.4,42.9 21.8,69.8 24,40.5 		"/>
		
			<linearGradient id="SVGID_49_" gradientUnits="userSpaceOnUse" x1="-294.3131" y1="477.0057" x2="-294.1593" y2="476.8519" gradientTransform="matrix(57 0 0 -191 16795.9844 91154.0469)">
			<stop  offset="0" style="stop-color:#69B0A1"/>
			<stop  offset="1" style="stop-color:#72B6A2"/>
		</linearGradient>
		<polygon fill="url(#SVGID_49_)" points="24,40.5 21.8,69.8 30.6,65.2 		"/>
		
			<linearGradient id="SVGID_50_" gradientUnits="userSpaceOnUse" x1="-293.313" y1="477.0427" x2="-293.1592" y2="476.8889" gradientTransform="matrix(86 0 0 -161 25248.9805 76844.0391)">
			<stop  offset="0" style="stop-color:#64A49A"/>
			<stop  offset="1" style="stop-color:#6BA59B"/>
		</linearGradient>
		<polygon fill="url(#SVGID_50_)" points="37.2,51.8 24,40.5 30.6,65.2 		"/>
		
			<linearGradient id="SVGID_51_" gradientUnits="userSpaceOnUse" x1="-293.3009" y1="476.5597" x2="-293.1472" y2="476.4059" gradientTransform="matrix(86 0 0 -176 25248.9805 83897.0391)">
			<stop  offset="0" style="stop-color:#7DBFA1"/>
			<stop  offset="1" style="stop-color:#83BFA2"/>
		</linearGradient>
		<polygon fill="url(#SVGID_51_)" points="36.1,24.8 24,40.5 37.2,51.8 		"/>
		
			<linearGradient id="SVGID_52_" gradientUnits="userSpaceOnUse" x1="-295.9869" y1="472.8193" x2="-295.833" y2="472.6655" gradientTransform="matrix(107 0 0 -59 31754.9785 27891.0176)">
			<stop  offset="0" style="stop-color:#A1DCA6"/>
			<stop  offset="1" style="stop-color:#A3DCA6"/>
		</linearGradient>
		<polygon fill="url(#SVGID_52_)" points="98.7,0 91.4,0 95.8,3.5 		"/>
		
			<linearGradient id="SVGID_53_" gradientUnits="userSpaceOnUse" x1="-307.9677" y1="474.3431" x2="-307.8139" y2="474.1893" gradientTransform="matrix(35 0 0 -87 10874.9971 41264.0195)">
			<stop  offset="0" style="stop-color:#ABE1A6"/>
			<stop  offset="1" style="stop-color:#ADE1A6"/>
		</linearGradient>
		<polygon fill="url(#SVGID_53_)" points="100.4,10.5 101,0 98.7,0 95.8,3.5 		"/>
		
			<linearGradient id="SVGID_54_" gradientUnits="userSpaceOnUse" x1="-301.0256" y1="474.301" x2="-300.8718" y2="474.1472" gradientTransform="matrix(62 0 0 -87 18761.9824 41264.0195)">
			<stop  offset="0" style="stop-color:#B5E6A6"/>
			<stop  offset="1" style="stop-color:#A3DCA6"/>
		</linearGradient>
		<polygon fill="url(#SVGID_54_)" points="109.9,8.2 103.5,0 101,0 100.4,10.5 		"/>
		
			<linearGradient id="SVGID_55_" gradientUnits="userSpaceOnUse" x1="-301.9391" y1="473.9656" x2="-301.7853" y2="473.8119" gradientTransform="matrix(57 0 0 -78 17311.9844 36965.0195)">
			<stop  offset="0" style="stop-color:#9BD6A7"/>
			<stop  offset="1" style="stop-color:#A0DAA6"/>
		</linearGradient>
		<polygon fill="url(#SVGID_55_)" points="105.7,0 103.5,0 109.9,8.2 		"/>
		
			<linearGradient id="SVGID_56_" gradientUnits="userSpaceOnUse" x1="-297.2273" y1="475.2344" x2="-297.0735" y2="475.0806" gradientTransform="matrix(166 0 0 -156 49514.9609 74126.0391)">
			<stop  offset="0" style="stop-color:#023765"/>
			<stop  offset="1" style="stop-color:#032859"/>
		</linearGradient>
		<polygon fill="url(#SVGID_56_)" points="199.9,13.2 200.6,0 181.3,0 175.6,3.1 		"/>
		
			<linearGradient id="SVGID_57_" gradientUnits="userSpaceOnUse" x1="-297.5529" y1="475.2024" x2="-297.399" y2="475.0486" gradientTransform="matrix(179 0 0 -156 53455.9609 74126.0391)">
			<stop  offset="0" style="stop-color:#033062"/>
			<stop  offset="1" style="stop-color:#031C4D"/>
		</linearGradient>
		<polygon fill="url(#SVGID_57_)" points="216,7.4 216,0 200.6,0 199.9,13.2 		"/>
		
			<linearGradient id="SVGID_58_" gradientUnits="userSpaceOnUse" x1="-295.9272" y1="478.778" x2="-295.7733" y2="478.6241" gradientTransform="matrix(143 0 0 -106 42427.9648 50828.0234)">
			<stop  offset="0" style="stop-color:#C1EEA6"/>
			<stop  offset="1" style="stop-color:#C3EFA6"/>
		</linearGradient>
		<polygon fill="url(#SVGID_58_)" points="116.1,74.1 115,90.4 137,87.8 		"/>
		
			<linearGradient id="SVGID_59_" gradientUnits="userSpaceOnUse" x1="-294.776" y1="477.2115" x2="-294.6223" y2="477.0578" gradientTransform="matrix(153 0 0 -180 45191.9648 85946.0469)">
			<stop  offset="0" style="stop-color:#C7F2A7"/>
			<stop  offset="1" style="stop-color:#C0EDA6"/>
		</linearGradient>
		<polygon fill="url(#SVGID_59_)" points="92.5,63.1 116.1,74.1 101.5,46.5 		"/>
		
			<linearGradient id="SVGID_60_" gradientUnits="userSpaceOnUse" x1="-295.0652" y1="477.243" x2="-294.9114" y2="477.0892" gradientTransform="matrix(153 0 0 -180 45249.9648 85946.0469)">
			<stop  offset="0" style="stop-color:#B2E6A6"/>
			<stop  offset="1" style="stop-color:#AFE3A6"/>
		</linearGradient>
		<polygon fill="url(#SVGID_60_)" points="101.5,46.5 116.1,74.1 125,47.1 		"/>
		
			<linearGradient id="SVGID_61_" gradientUnits="userSpaceOnUse" x1="-298.217" y1="479.8494" x2="-298.0633" y2="479.6956" gradientTransform="matrix(43 0 0 -134 12866.9961 64410.0352)">
			<stop  offset="0" style="stop-color:#1F6883"/>
			<stop  offset="1" style="stop-color:#1B6782"/>
		</linearGradient>
		<polygon fill="url(#SVGID_61_)" points="44.1,129.5 50.7,114.3 46.9,108.9 		"/>
		
			<linearGradient id="SVGID_62_" gradientUnits="userSpaceOnUse" x1="-299.917" y1="479.7432" x2="-299.7632" y2="479.5894" gradientTransform="matrix(107 0 0 -60 32249.9785 28855.0176)">
			<stop  offset="0" style="stop-color:#88C7A4"/>
			<stop  offset="1" style="stop-color:#73B3A1"/>
		</linearGradient>
		<polygon fill="url(#SVGID_62_)" points="160.8,75.7 177.3,78.6 164.4,69.4 		"/>
		
			<linearGradient id="SVGID_63_" gradientUnits="userSpaceOnUse" x1="-298.9059" y1="478.6185" x2="-298.7521" y2="478.4647" gradientTransform="matrix(120 0 0 -126 36032.9766 60378.0352)">
			<stop  offset="0" style="stop-color:#8ECBA6"/>
			<stop  offset="1" style="stop-color:#75B6A3"/>
		</linearGradient>
		<polygon fill="url(#SVGID_63_)" points="179.3,95.1 177.3,78.6 160.8,75.7 		"/>
		
			<linearGradient id="SVGID_64_" gradientUnits="userSpaceOnUse" x1="-295.7834" y1="479.7985" x2="-295.6296" y2="479.6447" gradientTransform="matrix(217 0 0 -109 64356.9453 52395.0234)">
			<stop  offset="0" style="stop-color:#5CA89F"/>
			<stop  offset="1" style="stop-color:#559D9A"/>
		</linearGradient>
		<polygon fill="url(#SVGID_64_)" points="175.7,111.8 209.1,102.7 179.3,95.1 		"/>
		
			<linearGradient id="SVGID_65_" gradientUnits="userSpaceOnUse" x1="-295.753" y1="479.3265" x2="-295.5992" y2="479.1727" gradientTransform="matrix(217 0 0 -151 64356.9453 72479.0391)">
			<stop  offset="0" style="stop-color:#4D9A9A"/>
			<stop  offset="1" style="stop-color:#2B788C"/>
		</linearGradient>
		<polygon fill="url(#SVGID_65_)" points="187.1,126 209.1,102.7 175.7,111.8 		"/>
		
			<linearGradient id="SVGID_66_" gradientUnits="userSpaceOnUse" x1="-298.6697" y1="479.3127" x2="-298.516" y2="479.159" gradientTransform="matrix(143 0 0 -151 42896.9648 72479.0391)">
			<stop  offset="0" style="stop-color:#21748B"/>
			<stop  offset="1" style="stop-color:#1F6E88"/>
		</linearGradient>
		<polygon fill="url(#SVGID_66_)" points="204.2,123.7 209.1,102.7 187.1,126 		"/>
		
			<linearGradient id="SVGID_67_" gradientUnits="userSpaceOnUse" x1="-301.1716" y1="474.9697" x2="-301.0178" y2="474.8158" gradientTransform="matrix(94 0 0 -138 28468.9805 65538.0391)">
			<stop  offset="0" style="stop-color:#3C838B"/>
			<stop  offset="1" style="stop-color:#024571"/>
		</linearGradient>
		<polygon fill="url(#SVGID_67_)" points="175.6,3.1 174.1,0 164.7,0 161.1,10.2 		"/>
		
			<linearGradient id="SVGID_68_" gradientUnits="userSpaceOnUse" x1="-295.7623" y1="473.9446" x2="-295.6086" y2="473.7909" gradientTransform="matrix(211 0 0 -92 62564.957 43596.0195)">
			<stop  offset="0" style="stop-color:#023867"/>
			<stop  offset="1" style="stop-color:#03285A"/>
		</linearGradient>
		<polygon fill="url(#SVGID_68_)" points="181.3,0 174.1,0 175.6,3.1 		"/>
		
			<linearGradient id="SVGID_69_" gradientUnits="userSpaceOnUse" x1="-290.8015" y1="477.7771" x2="-290.6477" y2="477.6233" gradientTransform="matrix(293 0 0 -103 85178.8438 49266.0234)">
			<stop  offset="0" style="stop-color:#256E86"/>
			<stop  offset="1" style="stop-color:#33808D"/>
		</linearGradient>
		<polygon fill="url(#SVGID_69_)" points="0,61.6 0,66.6 21.8,69.8 		"/>
		
			<linearGradient id="SVGID_70_" gradientUnits="userSpaceOnUse" x1="-290.8268" y1="477.1275" x2="-290.673" y2="476.9737" gradientTransform="matrix(273 0 0 -175 79378.9375 83538.0391)">
			<stop  offset="0" style="stop-color:#327F90"/>
			<stop  offset="1" style="stop-color:#36848F"/>
		</linearGradient>
		<polygon fill="url(#SVGID_70_)" points="2.4,42.9 0,44.1 0,61.6 21.8,69.8 		"/>
		
			<linearGradient id="SVGID_71_" gradientUnits="userSpaceOnUse" x1="-301.4721" y1="474.8525" x2="-301.3183" y2="474.6988" gradientTransform="matrix(72 0 0 -104 21830.9824 49383.0234)">
			<stop  offset="0" style="stop-color:#93D1A6"/>
			<stop  offset="1" style="stop-color:#91D2A6"/>
		</linearGradient>
		<polygon fill="url(#SVGID_71_)" points="135,14.6 135.8,0 134.8,0 124.8,12.2 		"/>
		
			<linearGradient id="SVGID_72_" gradientUnits="userSpaceOnUse" x1="-292.8058" y1="481.6396" x2="-292.6521" y2="481.4858" gradientTransform="matrix(103 0 0 -116 30179.9785 56008.0234)">
			<stop  offset="0" style="stop-color:#4B8C91"/>
			<stop  offset="1" style="stop-color:#3B828D"/>
		</linearGradient>
		<polygon fill="url(#SVGID_72_)" points="23.3,151.2 35.8,151.2 30,137.2 		"/>
		
			<linearGradient id="SVGID_73_" gradientUnits="userSpaceOnUse" x1="-295.2224" y1="476.5377" x2="-295.0686" y2="476.3839" gradientTransform="matrix(236 0 0 -129 69840.9453 61502.0352)">
			<stop  offset="0" style="stop-color:#9EDBA6"/>
			<stop  offset="1" style="stop-color:#77BA9D"/>
		</linearGradient>
		<polygon fill="url(#SVGID_73_)" points="205.1,46.6 203.6,28.5 168.8,48.3 		"/>
		
			<linearGradient id="SVGID_74_" gradientUnits="userSpaceOnUse" x1="-295.4418" y1="476.4366" x2="-295.288" y2="476.2828" gradientTransform="matrix(269 0 0 -130 79669.9375 61967.0352)">
			<stop  offset="0" style="stop-color:#176B85"/>
			<stop  offset="1" style="stop-color:#397D85"/>
		</linearGradient>
		<polygon fill="url(#SVGID_74_)" points="205.1,46.6 216,41.1 216,27.9 203.6,28.5 		"/>
		
			<linearGradient id="SVGID_75_" gradientUnits="userSpaceOnUse" x1="-293.9705" y1="481.1031" x2="-293.8167" y2="480.9493" gradientTransform="matrix(140 0 0 -142 41223.9648 68457.0391)">
			<stop  offset="0" style="stop-color:#337E8C"/>
			<stop  offset="1" style="stop-color:#1A6E86"/>
		</linearGradient>
		<polygon fill="url(#SVGID_75_)" points="73.3,151.2 80,151.2 77.5,144.4 		"/>
		
			<linearGradient id="SVGID_76_" gradientUnits="userSpaceOnUse" x1="-293.8689" y1="481.0755" x2="-293.715" y2="480.9217" gradientTransform="matrix(172 0 0 -142 50622.9609 68457.0391)">
			<stop  offset="0" style="stop-color:#0E6683"/>
			<stop  offset="1" style="stop-color:#06597B"/>
		</linearGradient>
		<polygon fill="url(#SVGID_76_)" points="80,151.2 91.7,151.2 77.5,144.4 		"/>
		
			<linearGradient id="SVGID_77_" gradientUnits="userSpaceOnUse" x1="-295.3972" y1="478.7573" x2="-295.2434" y2="478.6035" gradientTransform="matrix(237 0 0 -118 70186.9453 56570.0352)">
			<stop  offset="0" style="stop-color:#60A29C"/>
			<stop  offset="1" style="stop-color:#64AA9F"/>
		</linearGradient>
		<polygon fill="url(#SVGID_77_)" points="179.3,95.1 213.7,76.9 177.3,78.6 		"/>
		
			<linearGradient id="SVGID_78_" gradientUnits="userSpaceOnUse" x1="-295.6925" y1="478.2445" x2="-295.5388" y2="478.0907" gradientTransform="matrix(224 0 0 -168 66416.9453 80420.0391)">
			<stop  offset="0" style="stop-color:#5A9F9B"/>
			<stop  offset="1" style="stop-color:#428792"/>
		</linearGradient>
		<polygon fill="url(#SVGID_78_)" points="209.1,102.7 213.7,76.9 179.3,95.1 		"/>
		
			<linearGradient id="SVGID_79_" gradientUnits="userSpaceOnUse" x1="-296.568" y1="478.281" x2="-296.4142" y2="478.1272" gradientTransform="matrix(219 0 0 -96 65149.9453 45980.0234)">
			<stop  offset="0" style="stop-color:#4A8E96"/>
			<stop  offset="1" style="stop-color:#559899"/>
		</linearGradient>
		<polygon fill="url(#SVGID_79_)" points="213.7,76.9 216,76.7 216,64.9 208.2,62.1 		"/>
		
			<linearGradient id="SVGID_80_" gradientUnits="userSpaceOnUse" x1="-297.7979" y1="477.8926" x2="-297.6442" y2="477.7389" gradientTransform="matrix(183 0 0 -212 54709.9609 101388.0547)">
			<stop  offset="0" style="stop-color:#277189"/>
			<stop  offset="1" style="stop-color:#559999"/>
		</linearGradient>
		<polygon fill="url(#SVGID_80_)" points="216,80.1 216,76.7 213.7,76.9 		"/>
		
			<linearGradient id="SVGID_81_" gradientUnits="userSpaceOnUse" x1="-292.2898" y1="479.2511" x2="-292.136" y2="479.0973" gradientTransform="matrix(150 0 0 -125 43871.9648 59992.0352)">
			<stop  offset="0" style="stop-color:#529495"/>
			<stop  offset="1" style="stop-color:#519795"/>
		</linearGradient>
		<polygon fill="url(#SVGID_81_)" points="23.8,90.6 46.9,108.9 43.9,89.7 		"/>
		
			<linearGradient id="SVGID_82_" gradientUnits="userSpaceOnUse" x1="-293.6249" y1="479.1909" x2="-293.4711" y2="479.0371" gradientTransform="matrix(119 0 0 -125 34981.9766 59992.0352)">
			<stop  offset="0" style="stop-color:#2C7689"/>
			<stop  offset="1" style="stop-color:#4A9393"/>
		</linearGradient>
		<polygon fill="url(#SVGID_82_)" points="46.9,108.9 62.2,106.7 43.9,89.7 		"/>
		
			<linearGradient id="SVGID_83_" gradientUnits="userSpaceOnUse" x1="-293.6205" y1="479.3181" x2="-293.4666" y2="479.1643" gradientTransform="matrix(119 0 0 -87 34981.9766 41779.0195)">
			<stop  offset="0" style="stop-color:#93D8A6"/>
			<stop  offset="1" style="stop-color:#91D5A6"/>
		</linearGradient>
		<polygon fill="url(#SVGID_83_)" points="43.9,89.7 62.2,88.3 51,76.3 		"/>
		
			<linearGradient id="SVGID_84_" gradientUnits="userSpaceOnUse" x1="-293.5613" y1="479.2835" x2="-293.4076" y2="479.1297" gradientTransform="matrix(119 0 0 -120 34981.9766 57598.0352)">
			<stop  offset="0" style="stop-color:#549C96"/>
			<stop  offset="1" style="stop-color:#8CCFA6"/>
		</linearGradient>
		<polygon fill="url(#SVGID_84_)" points="43.9,89.7 62.2,106.7 62.2,88.3 		"/>
		
			<linearGradient id="SVGID_85_" gradientUnits="userSpaceOnUse" x1="-296.7162" y1="477.1554" x2="-296.5624" y2="477.0016" gradientTransform="matrix(61 0 0 -201 18149.9844 95956.0547)">
			<stop  offset="0" style="stop-color:#89CAA5"/>
			<stop  offset="1" style="stop-color:#9CD5A5"/>
		</linearGradient>
		<polygon fill="url(#SVGID_85_)" points="60.4,76.1 57.5,45.4 51,76.3 		"/>
		
			<linearGradient id="SVGID_86_" gradientUnits="userSpaceOnUse" x1="-295.735" y1="479.5999" x2="-295.5813" y2="479.4461" gradientTransform="matrix(73 0 0 -79 21641.9824 37962.0195)">
			<stop  offset="0" style="stop-color:#93D8A6"/>
			<stop  offset="1" style="stop-color:#95D9A6"/>
		</linearGradient>
		<polygon fill="url(#SVGID_86_)" points="51,76.3 62.2,88.3 60.4,76.1 		"/>
		
			<linearGradient id="SVGID_87_" gradientUnits="userSpaceOnUse" x1="-296.3994" y1="477.1707" x2="-296.2456" y2="477.0169" gradientTransform="matrix(71 0 0 -200 21101.9824 95479.0547)">
			<stop  offset="0" style="stop-color:#C4EEA7"/>
			<stop  offset="1" style="stop-color:#B4E7A6"/>
		</linearGradient>
		<polygon fill="url(#SVGID_87_)" points="68.4,51.8 57.5,45.4 60.4,76.1 		"/>
		
			<linearGradient id="SVGID_88_" gradientUnits="userSpaceOnUse" x1="-305.8072" y1="479.5609" x2="-305.6534" y2="479.4071" gradientTransform="matrix(27 0 0 -79 8317 37962.0195)">
			<stop  offset="0" style="stop-color:#9ADBA6"/>
			<stop  offset="1" style="stop-color:#96D9A6"/>
		</linearGradient>
		<polygon fill="url(#SVGID_88_)" points="62.2,88.3 64.6,83.8 60.4,76.1 		"/>
		
			<linearGradient id="SVGID_89_" gradientUnits="userSpaceOnUse" x1="-291.2875" y1="479.8493" x2="-291.1337" y2="479.6955" gradientTransform="matrix(127 0 0 -107 36990.9766 51436.0234)">
			<stop  offset="0" style="stop-color:#044B74"/>
			<stop  offset="1" style="stop-color:#166984"/>
		</linearGradient>
		<polygon fill="url(#SVGID_89_)" points="0,95.2 0,106.4 14.4,94.3 		"/>
		
			<linearGradient id="SVGID_90_" gradientUnits="userSpaceOnUse" x1="-291.4348" y1="478.0208" x2="-291.281" y2="477.867" gradientTransform="matrix(146 0 0 -165 42548.9648 78943.0391)">
			<stop  offset="0" style="stop-color:#29788A"/>
			<stop  offset="1" style="stop-color:#509395"/>
		</linearGradient>
		<polygon fill="url(#SVGID_90_)" points="21.8,69.8 0,94.5 0,95.2 14.4,94.3 		"/>
		
			<linearGradient id="SVGID_91_" gradientUnits="userSpaceOnUse" x1="-293.4109" y1="478.0497" x2="-293.2571" y2="477.8959" gradientTransform="matrix(61 0 0 -159 17911.9844 76081.0391)">
			<stop  offset="0" style="stop-color:#65A99D"/>
			<stop  offset="1" style="stop-color:#4D8E93"/>
		</linearGradient>
		<polygon fill="url(#SVGID_91_)" points="21.8,69.8 14.4,94.3 23.8,90.6 		"/>
		
			<linearGradient id="SVGID_92_" gradientUnits="userSpaceOnUse" x1="-291.6908" y1="479.3765" x2="-291.537" y2="479.2227" gradientTransform="matrix(211 0 0 -119 61561.957 57136.0352)">
			<stop  offset="0" style="stop-color:#468991"/>
			<stop  offset="1" style="stop-color:#2F7589"/>
		</linearGradient>
		<polygon fill="url(#SVGID_92_)" points="23.8,90.6 14.4,94.3 46.9,108.9 		"/>
		
			<linearGradient id="SVGID_93_" gradientUnits="userSpaceOnUse" x1="-291.2764" y1="479.0311" x2="-291.1227" y2="478.8773" gradientTransform="matrix(151 0 0 -192 43974.9648 92088.0469)">
			<stop  offset="0" style="stop-color:#034571"/>
			<stop  offset="1" style="stop-color:#166380"/>
		</linearGradient>
		<polygon fill="url(#SVGID_93_)" points="0,115.4 0,139.1 18.1,131.8 		"/>
		
			<linearGradient id="SVGID_94_" gradientUnits="userSpaceOnUse" x1="-291.2393" y1="478.2598" x2="-291.0855" y2="478.106" gradientTransform="matrix(151 0 0 -244 43974.9648 116785.0625)">
			<stop  offset="0" style="stop-color:#02396A"/>
			<stop  offset="1" style="stop-color:#1A5E7D"/>
		</linearGradient>
		<polygon fill="url(#SVGID_94_)" points="14.4,94.3 0,106.4 0,115.4 18.1,131.8 		"/>
		
			<linearGradient id="SVGID_95_" gradientUnits="userSpaceOnUse" x1="-291.3073" y1="480.3934" x2="-291.1534" y2="480.2396" gradientTransform="matrix(158 0 0 -151 46026.9609 72668.0391)">
			<stop  offset="0" style="stop-color:#317589"/>
			<stop  offset="1" style="stop-color:#357B8B"/>
		</linearGradient>
		<polygon fill="url(#SVGID_95_)" points="0,139.1 0,142 15.2,151.2 20.9,151.2 18.1,131.8 		"/>
		
			<linearGradient id="SVGID_96_" gradientUnits="userSpaceOnUse" x1="-291.7052" y1="478.2304" x2="-291.5514" y2="478.0766" gradientTransform="matrix(211 0 0 -244 61561.957 116785.0625)">
			<stop  offset="0" style="stop-color:#257187"/>
			<stop  offset="1" style="stop-color:#176883"/>
		</linearGradient>
		<polygon fill="url(#SVGID_96_)" points="14.4,94.3 18.1,131.8 46.9,108.9 		"/>
		
			<linearGradient id="SVGID_97_" gradientUnits="userSpaceOnUse" x1="-293.1606" y1="480.379" x2="-293.0067" y2="480.2252" gradientTransform="matrix(77 0 0 -151 22591.9824 72668.0391)">
			<stop  offset="0" style="stop-color:#3D828D"/>
			<stop  offset="1" style="stop-color:#1F6E85"/>
		</linearGradient>
		<polygon fill="url(#SVGID_97_)" points="18.1,131.8 20.9,151.2 23.3,151.2 30,137.2 		"/>
		
			<linearGradient id="SVGID_98_" gradientUnits="userSpaceOnUse" x1="-291.9702" y1="486.9483" x2="-291.8164" y2="486.7945" gradientTransform="matrix(169 0 0 -50 49363.9609 24476.0156)">
			<stop  offset="0" style="stop-color:#206F85"/>
			<stop  offset="1" style="stop-color:#186A83"/>
		</linearGradient>
		<polygon fill="url(#SVGID_98_)" points="18.1,131.8 30,137.2 44.1,129.5 		"/>
		
			<linearGradient id="SVGID_99_" gradientUnits="userSpaceOnUse" x1="-291.8927" y1="479.5719" x2="-291.7389" y2="479.4181" gradientTransform="matrix(187 0 0 -149 54601.9609 71565.0391)">
			<stop  offset="0" style="stop-color:#126782"/>
			<stop  offset="1" style="stop-color:#166782"/>
		</linearGradient>
		<polygon fill="url(#SVGID_99_)" points="46.9,108.9 18.1,131.8 44.1,129.5 		"/>
		
			<linearGradient id="SVGID_100_" gradientUnits="userSpaceOnUse" x1="-292.9311" y1="480.7432" x2="-292.7774" y2="480.5894" gradientTransform="matrix(119 0 0 -139 34890.9766 66954.0391)">
			<stop  offset="0" style="stop-color:#287588"/>
			<stop  offset="1" style="stop-color:#317C8B"/>
		</linearGradient>
		<polygon fill="url(#SVGID_100_)" points="30,137.2 35.8,151.2 39.1,151.2 48.3,133.3 		"/>
		
			<linearGradient id="SVGID_101_" gradientUnits="userSpaceOnUse" x1="-292.9586" y1="486.9216" x2="-292.8048" y2="486.7678" gradientTransform="matrix(119 0 0 -50 34890.9766 24476.0156)">
			<stop  offset="0" style="stop-color:#1F6F85"/>
			<stop  offset="1" style="stop-color:#196B84"/>
		</linearGradient>
		<polygon fill="url(#SVGID_101_)" points="30,137.2 48.3,133.3 44.1,129.5 		"/>
		
			<linearGradient id="SVGID_102_" gradientUnits="userSpaceOnUse" x1="-298.1991" y1="480.3364" x2="-298.0453" y2="480.1826" gradientTransform="matrix(43 0 0 -124 12866.9961 59675.0352)">
			<stop  offset="0" style="stop-color:#1A6D85"/>
			<stop  offset="1" style="stop-color:#1B6B84"/>
		</linearGradient>
		<polygon fill="url(#SVGID_102_)" points="44.1,129.5 48.3,133.3 50.7,114.3 		"/>
		
			<linearGradient id="SVGID_103_" gradientUnits="userSpaceOnUse" x1="-294.6563" y1="479.1462" x2="-294.5025" y2="478.9924" gradientTransform="matrix(91 0 0 -173 26861.9805 82999.0391)">
			<stop  offset="0" style="stop-color:#1D6782"/>
			<stop  offset="1" style="stop-color:#1E6B84"/>
		</linearGradient>
		<polygon fill="url(#SVGID_103_)" points="50.7,114.3 48.3,133.3 62.2,106.7 		"/>
		
			<linearGradient id="SVGID_104_" gradientUnits="userSpaceOnUse" x1="-292.7599" y1="478.507" x2="-292.6062" y2="478.3532" gradientTransform="matrix(190 0 0 -245 55670.9609 117343.0625)">
			<stop  offset="0" style="stop-color:#1C6782"/>
			<stop  offset="1" style="stop-color:#146581"/>
		</linearGradient>
		<polygon fill="url(#SVGID_104_)" points="48.3,133.3 77.5,144.4 62.2,106.7 		"/>
		
			<linearGradient id="SVGID_105_" gradientUnits="userSpaceOnUse" x1="-291.8686" y1="473.8907" x2="-291.715" y2="473.737" gradientTransform="matrix(188 0 0 -89 54884.9609 42167.0195)">
			<stop  offset="0" style="stop-color:#77A49A"/>
			<stop  offset="1" style="stop-color:#85B8A1"/>
		</linearGradient>
		<polygon fill="url(#SVGID_105_)" points="39.7,0 29.4,0 32.9,2.9 		"/>
		
			<linearGradient id="SVGID_106_" gradientUnits="userSpaceOnUse" x1="-293.5907" y1="475.4641" x2="-293.4369" y2="475.3103" gradientTransform="matrix(95 0 0 -148 27925.9805 70363.0391)">
			<stop  offset="0" style="stop-color:#87B4A0"/>
			<stop  offset="1" style="stop-color:#6AAA9D"/>
		</linearGradient>
		<polygon fill="url(#SVGID_106_)" points="47.5,20.2 46,0 39.7,0 32.9,2.9 		"/>
		
			<linearGradient id="SVGID_107_" gradientUnits="userSpaceOnUse" x1="-293.1687" y1="477.4181" x2="-293.0149" y2="477.2643" gradientTransform="matrix(186 0 0 -158 54585.9609 75487.0391)">
			<stop  offset="0" style="stop-color:#ADE3A6"/>
			<stop  offset="1" style="stop-color:#CBF2A6"/>
		</linearGradient>
		<polygon fill="url(#SVGID_107_)" points="68.4,51.8 60.4,76.1 89,64.6 		"/>
		
			<linearGradient id="SVGID_108_" gradientUnits="userSpaceOnUse" x1="-293.4499" y1="477.416" x2="-293.2961" y2="477.2622" gradientTransform="matrix(179 0 0 -113 52600.9609 53992.0234)">
			<stop  offset="0" style="stop-color:#C8F1A6"/>
			<stop  offset="1" style="stop-color:#B2E4A7"/>
		</linearGradient>
		<polygon fill="url(#SVGID_108_)" points="95.9,47.2 68.4,51.8 89,64.6 		"/>
		
			<linearGradient id="SVGID_109_" gradientUnits="userSpaceOnUse" x1="-303.3772" y1="477.3875" x2="-303.2234" y2="477.2338" gradientTransform="matrix(45 0 0 -113 13740.9854 53992.0234)">
			<stop  offset="0" style="stop-color:#CCF4A7"/>
			<stop  offset="1" style="stop-color:#B3E5A7"/>
		</linearGradient>
		<polygon fill="url(#SVGID_109_)" points="92.5,63.1 95.9,47.2 89,64.6 		"/>
		
			<linearGradient id="SVGID_110_" gradientUnits="userSpaceOnUse" x1="-295.2227" y1="477.3732" x2="-295.0689" y2="477.2194" gradientTransform="matrix(285 0 0 -101 84335.9375 48264.0234)">
			<stop  offset="0" style="stop-color:#ABE1A6"/>
			<stop  offset="1" style="stop-color:#599D95"/>
		</linearGradient>
		<polygon fill="url(#SVGID_110_)" points="208.2,62.1 216,59.4 216,46.9 205.1,46.6 		"/>
		
			<linearGradient id="SVGID_111_" gradientUnits="userSpaceOnUse" x1="-295.2496" y1="476.439" x2="-295.0959" y2="476.2853" gradientTransform="matrix(285 0 0 -137 84335.9375 65306.0352)">
			<stop  offset="0" style="stop-color:#549A91"/>
			<stop  offset="1" style="stop-color:#034D75"/>
		</linearGradient>
		<polygon fill="url(#SVGID_111_)" points="216,46.9 216,41.1 205.1,46.6 		"/>
		
			<linearGradient id="SVGID_112_" gradientUnits="userSpaceOnUse" x1="-295.6072" y1="477.2413" x2="-295.4534" y2="477.0876" gradientTransform="matrix(265 0 0 -170 78535.9375 81184.0391)">
			<stop  offset="0" style="stop-color:#72B6A1"/>
			<stop  offset="1" style="stop-color:#519995"/>
		</linearGradient>
		<polygon fill="url(#SVGID_112_)" points="216,64.9 216,59.4 208.2,62.1 		"/>
		
			<linearGradient id="SVGID_113_" gradientUnits="userSpaceOnUse" x1="-297.8633" y1="477.3419" x2="-297.7095" y2="477.1881" gradientTransform="matrix(142 0 0 -137 42457.9648 65447.0352)">
			<stop  offset="0" style="stop-color:#88CAA5"/>
			<stop  offset="1" style="stop-color:#96D7A6"/>
		</linearGradient>
		<polygon fill="url(#SVGID_113_)" points="186.2,59.8 168.8,48.3 164.4,69.4 		"/>
		
			<linearGradient id="SVGID_114_" gradientUnits="userSpaceOnUse" x1="-297.8239" y1="477.9473" x2="-297.6701" y2="477.7935" gradientTransform="matrix(142 0 0 -122 42457.9648 58367.0352)">
			<stop  offset="0" style="stop-color:#85C8A5"/>
			<stop  offset="1" style="stop-color:#7FC4A4"/>
		</linearGradient>
		<polygon fill="url(#SVGID_114_)" points="177.3,78.6 186.2,59.8 164.4,69.4 		"/>
		
			<linearGradient id="SVGID_115_" gradientUnits="userSpaceOnUse" x1="-295.2024" y1="477.4883" x2="-295.0486" y2="477.3345" gradientTransform="matrix(236 0 0 -86 69840.9453 41109.0195)">
			<stop  offset="0" style="stop-color:#8BCAA4"/>
			<stop  offset="1" style="stop-color:#8ACBA5"/>
		</linearGradient>
		<polygon fill="url(#SVGID_115_)" points="186.2,59.8 205.1,46.6 168.8,48.3 		"/>
		
			<linearGradient id="SVGID_116_" gradientUnits="userSpaceOnUse" x1="-295.4285" y1="477.8989" x2="-295.2747" y2="477.7451" gradientTransform="matrix(237 0 0 -122 70186.9453 58367.0352)">
			<stop  offset="0" style="stop-color:#70B4A2"/>
			<stop  offset="1" style="stop-color:#75BCA3"/>
		</linearGradient>
		<polygon fill="url(#SVGID_116_)" points="177.3,78.6 213.7,76.9 186.2,59.8 		"/>
		
			<linearGradient id="SVGID_117_" gradientUnits="userSpaceOnUse" x1="-298.6344" y1="477.4005" x2="-298.4807" y2="477.2467" gradientTransform="matrix(143 0 0 -101 42890.9648 48264.0234)">
			<stop  offset="0" style="stop-color:#89C6A5"/>
			<stop  offset="1" style="stop-color:#6EB3A2"/>
		</linearGradient>
		<polygon fill="url(#SVGID_117_)" points="208.2,62.1 205.1,46.6 186.2,59.8 		"/>
		
			<linearGradient id="SVGID_118_" gradientUnits="userSpaceOnUse" x1="-297.0737" y1="478.0452" x2="-296.9199" y2="477.8914" gradientTransform="matrix(179 0 0 -111 53366.9609 53120.0234)">
			<stop  offset="0" style="stop-color:#62A79F"/>
			<stop  offset="1" style="stop-color:#71B7A2"/>
		</linearGradient>
		<polygon fill="url(#SVGID_118_)" points="213.7,76.9 208.2,62.1 186.2,59.8 		"/>
		
			<linearGradient id="SVGID_119_" gradientUnits="userSpaceOnUse" x1="-297.6803" y1="475.2413" x2="-297.5266" y2="475.0875" gradientTransform="matrix(103 0 0 -84 30775.9785 39931.0195)">
			<stop  offset="0" style="stop-color:#B5E7A6"/>
			<stop  offset="1" style="stop-color:#ADE2A6"/>
		</linearGradient>
		<polygon fill="url(#SVGID_119_)" points="129,25.1 124.8,12.2 113.2,16 		"/>
		
			<linearGradient id="SVGID_120_" gradientUnits="userSpaceOnUse" x1="-302.418" y1="475.2329" x2="-302.2642" y2="475.0791" gradientTransform="matrix(66 0 0 -84 20084.9824 39931.0195)">
			<stop  offset="0" style="stop-color:#9BD8A6"/>
			<stop  offset="1" style="stop-color:#A4DDA6"/>
		</linearGradient>
		<polygon fill="url(#SVGID_120_)" points="135,14.6 124.8,12.2 129,25.1 		"/>
		
			<linearGradient id="SVGID_121_" gradientUnits="userSpaceOnUse" x1="-304.0361" y1="476.4639" x2="-303.8823" y2="476.3101" gradientTransform="matrix(58 0 0 -151 17757.9844 71974.0391)">
			<stop  offset="0" style="stop-color:#9FDAA6"/>
			<stop  offset="1" style="stop-color:#B2E6A6"/>
		</linearGradient>
		<polygon fill="url(#SVGID_121_)" points="133.9,48.3 129,25.1 125,47.1 		"/>
		
			<linearGradient id="SVGID_122_" gradientUnits="userSpaceOnUse" x1="-296.8196" y1="475.5686" x2="-296.6658" y2="475.4148" gradientTransform="matrix(117 0 0 -91 34835.9766 43295.0195)">
			<stop  offset="0" style="stop-color:#C0EDA6"/>
			<stop  offset="1" style="stop-color:#C3EEA6"/>
		</linearGradient>
		<polygon fill="url(#SVGID_122_)" points="129,25.1 113.2,16 111,30 		"/>
		
			<linearGradient id="SVGID_123_" gradientUnits="userSpaceOnUse" x1="-296.7652" y1="476.4845" x2="-296.6115" y2="476.3307" gradientTransform="matrix(117 0 0 -143 34835.9766 68158.0391)">
			<stop  offset="0" style="stop-color:#B7E8A6"/>
			<stop  offset="1" style="stop-color:#ABE0A6"/>
		</linearGradient>
		<polygon fill="url(#SVGID_123_)" points="125,47.1 129,25.1 111,30 		"/>
		
			<linearGradient id="SVGID_124_" gradientUnits="userSpaceOnUse" x1="-291.0391" y1="480.787" x2="-290.8854" y2="480.6333" gradientTransform="matrix(208 0 0 -147 60526.957 70815.0391)">
			<stop  offset="0" style="stop-color:#31798A"/>
			<stop  offset="1" style="stop-color:#3E858E"/>
		</linearGradient>
		<polygon fill="url(#SVGID_124_)" points="0,151.2 15.2,151.2 0,142 		"/>
		
			<linearGradient id="SVGID_125_" gradientUnits="userSpaceOnUse" x1="-292.3063" y1="475.8276" x2="-292.1525" y2="475.6738" gradientTransform="matrix(248 0 0 -121 72543.9453 57586.0352)">
			<stop  offset="0" style="stop-color:#61A79A"/>
			<stop  offset="1" style="stop-color:#8CC7A2"/>
		</linearGradient>
		<polygon fill="url(#SVGID_125_)" points="85.6,13.1 47.5,20.2 65.5,31.7 		"/>
		
			<linearGradient id="SVGID_126_" gradientUnits="userSpaceOnUse" x1="-294.2631" y1="475.8093" x2="-294.1093" y2="475.6555" gradientTransform="matrix(131 0 0 -121 38613.9648 57586.0352)">
			<stop  offset="0" style="stop-color:#73B69F"/>
			<stop  offset="1" style="stop-color:#A8DDA7"/>
		</linearGradient>
		<polygon fill="url(#SVGID_126_)" points="82.5,31.4 85.6,13.1 65.5,31.7 		"/>
		
			<linearGradient id="SVGID_127_" gradientUnits="userSpaceOnUse" x1="-298.4221" y1="474.9476" x2="-298.2682" y2="474.7938" gradientTransform="matrix(72 0 0 -121 21569.9824 57465.0352)">
			<stop  offset="0" style="stop-color:#B1E4A6"/>
			<stop  offset="1" style="stop-color:#B8E8A6"/>
		</linearGradient>
		<polygon fill="url(#SVGID_127_)" points="95.8,3.5 91.4,0 85,0 85.6,13.1 		"/>
		
			<linearGradient id="SVGID_128_" gradientUnits="userSpaceOnUse" x1="-296.6199" y1="473.8182" x2="-296.4661" y2="473.6644" gradientTransform="matrix(96 0 0 -62 28559.9785 29381.0176)">
			<stop  offset="0" style="stop-color:#BBE9A6"/>
			<stop  offset="1" style="stop-color:#C2EDA6"/>
		</linearGradient>
		<polygon fill="url(#SVGID_128_)" points="95.8,3.5 85.6,13.1 100.4,10.5 		"/>
		
			<linearGradient id="SVGID_129_" gradientUnits="userSpaceOnUse" x1="-292.4446" y1="478.4278" x2="-292.2908" y2="478.274" gradientTransform="matrix(281 0 0 -256 82242.9375 122579.0625)">
			<stop  offset="0" style="stop-color:#125D7C"/>
			<stop  offset="1" style="stop-color:#2E7C88"/>
		</linearGradient>
		<polygon fill="url(#SVGID_129_)" points="77.5,144.4 105.5,105 62.2,106.7 		"/>
		
			<linearGradient id="SVGID_130_" gradientUnits="userSpaceOnUse" x1="-293.7019" y1="478.0805" x2="-293.5481" y2="477.9267" gradientTransform="matrix(182 0 0 -338 53532.9609 161693.1875)">
			<stop  offset="0" style="stop-color:#074A72"/>
			<stop  offset="1" style="stop-color:#2B687D"/>
		</linearGradient>
		<polygon fill="url(#SVGID_130_)" points="77.5,144.4 91.7,151.2 104.1,151.2 105.5,105 		"/>
		
			<linearGradient id="SVGID_131_" gradientUnits="userSpaceOnUse" x1="-295.4881" y1="478.0521" x2="-295.3343" y2="477.8983" gradientTransform="matrix(143 0 0 -338 42355.9648 161693.1875)">
			<stop  offset="0" style="stop-color:#033A69"/>
			<stop  offset="1" style="stop-color:#2B677D"/>
		</linearGradient>
		<polygon fill="url(#SVGID_131_)" points="105.5,105 104.1,151.2 110.4,151.2 125.9,137.3 		"/>
		
			<linearGradient id="SVGID_132_" gradientUnits="userSpaceOnUse" x1="-293.6672" y1="478.2229" x2="-293.5134" y2="478.0691" gradientTransform="matrix(70 0 0 -137 20578.9824 65585.0391)">
			<stop  offset="0" style="stop-color:#73B9A3"/>
			<stop  offset="1" style="stop-color:#6EB1A0"/>
		</linearGradient>
		<polygon fill="url(#SVGID_132_)" points="32.6,69.5 21.8,69.8 23.8,90.6 		"/>
		
			<linearGradient id="SVGID_133_" gradientUnits="userSpaceOnUse" x1="-293.6812" y1="481.7523" x2="-293.5274" y2="481.5986" gradientTransform="matrix(70 0 0 -30 20578.9824 14518.0029)">
			<stop  offset="0" style="stop-color:#71B8A3"/>
			<stop  offset="1" style="stop-color:#78BFA5"/>
		</linearGradient>
		<polygon fill="url(#SVGID_133_)" points="30.6,65.2 21.8,69.8 32.6,69.5 		"/>
		
			<linearGradient id="SVGID_134_" gradientUnits="userSpaceOnUse" x1="-292.5349" y1="478.1942" x2="-292.3811" y2="478.0404" gradientTransform="matrix(131 0 0 -137 38342.9648 65585.0391)">
			<stop  offset="0" style="stop-color:#6AAD9E"/>
			<stop  offset="1" style="stop-color:#80C6A6"/>
		</linearGradient>
		<polygon fill="url(#SVGID_134_)" points="32.6,69.5 23.8,90.6 43.9,89.7 		"/>
		
			<linearGradient id="SVGID_135_" gradientUnits="userSpaceOnUse" x1="-296.4659" y1="477.6111" x2="-296.3121" y2="477.4574" gradientTransform="matrix(43 0 0 -115 12778.9961 54976.0234)">
			<stop  offset="0" style="stop-color:#74BDA4"/>
			<stop  offset="1" style="stop-color:#76B9A3"/>
		</linearGradient>
		<polygon fill="url(#SVGID_135_)" points="30.6,65.2 32.6,69.5 37.2,51.8 		"/>
		
			<linearGradient id="SVGID_136_" gradientUnits="userSpaceOnUse" x1="-293.0714" y1="477.4168" x2="-292.9176" y2="477.2631" gradientTransform="matrix(120 0 0 -159 35198.9766 75964.0391)">
			<stop  offset="0" style="stop-color:#78BAA2"/>
			<stop  offset="1" style="stop-color:#83CBA6"/>
		</linearGradient>
		<polygon fill="url(#SVGID_136_)" points="37.2,51.8 32.6,69.5 51,76.3 		"/>
		
			<linearGradient id="SVGID_137_" gradientUnits="userSpaceOnUse" x1="-293.0424" y1="478.2817" x2="-292.8886" y2="478.1279" gradientTransform="matrix(120 0 0 -131 35198.9766 62723.0352)">
			<stop  offset="0" style="stop-color:#87CDA6"/>
			<stop  offset="1" style="stop-color:#88CEA6"/>
		</linearGradient>
		<polygon fill="url(#SVGID_137_)" points="51,76.3 32.6,69.5 43.9,89.7 		"/>
		
			<linearGradient id="SVGID_138_" gradientUnits="userSpaceOnUse" x1="-299.7472" y1="475.1595" x2="-299.5934" y2="475.0057" gradientTransform="matrix(56 0 0 -142 16863.9844 67461.0391)">
			<stop  offset="0" style="stop-color:#AEE2A6"/>
			<stop  offset="1" style="stop-color:#B1E4A6"/>
		</linearGradient>
		<polygon fill="url(#SVGID_138_)" points="85,0 80.5,0 85.6,13.1 		"/>
		
			<linearGradient id="SVGID_139_" gradientUnits="userSpaceOnUse" x1="-295.8159" y1="480.8173" x2="-295.6621" y2="480.6635" gradientTransform="matrix(145 0 0 -70 43007.9648 33745.0195)">
			<stop  offset="0" style="stop-color:#C2EDA7"/>
			<stop  offset="1" style="stop-color:#B0E4A7"/>
		</linearGradient>
		<polygon fill="url(#SVGID_139_)" points="115,90.4 114.7,98.6 137,87.8 		"/>
		
			<linearGradient id="SVGID_140_" gradientUnits="userSpaceOnUse" x1="-301.4438" y1="479.9639" x2="-301.29" y2="479.8102" gradientTransform="matrix(62 0 0 -95 18794.9824 45687.0234)">
			<stop  offset="0" style="stop-color:#87CCA6"/>
			<stop  offset="1" style="stop-color:#A4DDA7"/>
		</linearGradient>
		<polygon fill="url(#SVGID_140_)" points="115,90.4 105.5,105 114.7,98.6 		"/>
		
			<linearGradient id="SVGID_141_" gradientUnits="userSpaceOnUse" x1="-299.7858" y1="478.0219" x2="-299.632" y2="477.8681" gradientTransform="matrix(139 0 0 -198 41875.9648 94730.0547)">
			<stop  offset="0" style="stop-color:#387C8D"/>
			<stop  offset="1" style="stop-color:#38818F"/>
		</linearGradient>
		<polygon fill="url(#SVGID_141_)" points="209.1,102.7 216,104.2 216,81 213.7,76.9 		"/>
		
			<linearGradient id="SVGID_142_" gradientUnits="userSpaceOnUse" x1="-299.7586" y1="480.5661" x2="-299.6049" y2="480.4124" gradientTransform="matrix(139 0 0 -98 41875.9648 47198.0234)">
			<stop  offset="0" style="stop-color:#1B6281"/>
			<stop  offset="1" style="stop-color:#09537A"/>
		</linearGradient>
		<polygon fill="url(#SVGID_142_)" points="216,110 216,104.2 209.1,102.7 		"/>
		
			<linearGradient id="SVGID_143_" gradientUnits="userSpaceOnUse" x1="-300.0756" y1="478.0452" x2="-299.9217" y2="477.8913" gradientTransform="matrix(137 0 0 -198 41323.9648 94730.0547)">
			<stop  offset="0" style="stop-color:#468E95"/>
			<stop  offset="1" style="stop-color:#166383"/>
		</linearGradient>
		<polygon fill="url(#SVGID_143_)" points="216,81 216,80.1 213.7,76.9 		"/>
		
			<linearGradient id="SVGID_144_" gradientUnits="userSpaceOnUse" x1="-293.7227" y1="479.238" x2="-293.5689" y2="479.0842" gradientTransform="matrix(151 0 0 -120 44412.9648 57598.0352)">
			<stop  offset="0" style="stop-color:#57A196"/>
			<stop  offset="1" style="stop-color:#90D5A6"/>
		</linearGradient>
		<polygon fill="url(#SVGID_144_)" points="62.2,106.7 85.5,92.9 62.2,88.3 		"/>
		
			<linearGradient id="SVGID_145_" gradientUnits="userSpaceOnUse" x1="-293.7285" y1="481.1407" x2="-293.5747" y2="480.9869" gradientTransform="matrix(151 0 0 -59 44412.9648 28472.0176)">
			<stop  offset="0" style="stop-color:#9BDBA6"/>
			<stop  offset="1" style="stop-color:#95D8A6"/>
		</linearGradient>
		<polygon fill="url(#SVGID_145_)" points="62.2,88.3 85.5,92.9 64.6,83.8 		"/>
		
			<linearGradient id="SVGID_146_" gradientUnits="userSpaceOnUse" x1="-292.4758" y1="480.2614" x2="-292.3221" y2="480.1076" gradientTransform="matrix(281 0 0 -90 82242.9375 43318.0195)">
			<stop  offset="0" style="stop-color:#56A096"/>
			<stop  offset="1" style="stop-color:#85CCA6"/>
		</linearGradient>
		<polygon fill="url(#SVGID_146_)" points="62.2,106.7 105.5,105 85.5,92.9 		"/>
		
			<linearGradient id="SVGID_147_" gradientUnits="userSpaceOnUse" x1="-293.7733" y1="479.9899" x2="-293.6195" y2="479.8362" gradientTransform="matrix(192 0 0 -95 56494.957 45687.0234)">
			<stop  offset="0" style="stop-color:#80C2A5"/>
			<stop  offset="1" style="stop-color:#9CD5A6"/>
		</linearGradient>
		<polygon fill="url(#SVGID_147_)" points="85.5,92.9 105.5,105 115,90.4 		"/>
		
			<linearGradient id="SVGID_148_" gradientUnits="userSpaceOnUse" x1="-295.7913" y1="478.3549" x2="-295.6375" y2="478.2011" gradientTransform="matrix(145 0 0 -201 43007.9648 96232.0547)">
			<stop  offset="0" style="stop-color:#9DDAA7"/>
			<stop  offset="1" style="stop-color:#91CDA2"/>
		</linearGradient>
		<polygon fill="url(#SVGID_148_)" points="114.7,98.6 129.1,118.7 137,87.8 		"/>
		
			<linearGradient id="SVGID_149_" gradientUnits="userSpaceOnUse" x1="-297.624" y1="480.5995" x2="-297.4702" y2="480.4457" gradientTransform="matrix(115 0 0 -121 34350.9766 58273.0352)">
			<stop  offset="0" style="stop-color:#196280"/>
			<stop  offset="1" style="stop-color:#418991"/>
		</linearGradient>
		<polygon fill="url(#SVGID_149_)" points="125.9,137.3 143.6,125.8 129.1,118.7 		"/>
		
			<linearGradient id="SVGID_150_" gradientUnits="userSpaceOnUse" x1="-299.7552" y1="478.27" x2="-299.6014" y2="478.1162" gradientTransform="matrix(89 0 0 -208 26805.9805 99571.0547)">
			<stop  offset="0" style="stop-color:#A3DBA7"/>
			<stop  offset="1" style="stop-color:#65A89C"/>
		</linearGradient>
		<polygon fill="url(#SVGID_150_)" points="129.1,118.7 142.8,119.8 137,87.8 		"/>
		
			<linearGradient id="SVGID_151_" gradientUnits="userSpaceOnUse" x1="-299.2443" y1="486.5366" x2="-299.0905" y2="486.3828" gradientTransform="matrix(94 0 0 -46 28260.9805 22498.0156)">
			<stop  offset="0" style="stop-color:#4F8C92"/>
			<stop  offset="1" style="stop-color:#4B8B92"/>
		</linearGradient>
		<polygon fill="url(#SVGID_151_)" points="129.1,118.7 143.6,125.8 142.8,119.8 		"/>
		
			<linearGradient id="SVGID_152_" gradientUnits="userSpaceOnUse" x1="-295.2021" y1="479.4948" x2="-295.0483" y2="479.341" gradientTransform="matrix(154 0 0 -131 45566.9648 62912.0352)">
			<stop  offset="0" style="stop-color:#7CBCA3"/>
			<stop  offset="1" style="stop-color:#77B8A0"/>
		</linearGradient>
		<polygon fill="url(#SVGID_152_)" points="114.7,98.6 105.5,105 129.1,118.7 		"/>
		
			<linearGradient id="SVGID_153_" gradientUnits="userSpaceOnUse" x1="-295.1878" y1="478.7409" x2="-295.034" y2="478.5871" gradientTransform="matrix(154 0 0 -210 45566.9648 100637.0547)">
			<stop  offset="0" style="stop-color:#68B1A0"/>
			<stop  offset="1" style="stop-color:#397F8C"/>
		</linearGradient>
		<polygon fill="url(#SVGID_153_)" points="105.5,105 125.9,137.3 129.1,118.7 		"/>
		
			<linearGradient id="SVGID_154_" gradientUnits="userSpaceOnUse" x1="-292.9669" y1="484.9083" x2="-292.8134" y2="484.7547" gradientTransform="matrix(134 0 0 -78 39303.9648 37968.0195)">
			<stop  offset="0" style="stop-color:#468A91"/>
			<stop  offset="1" style="stop-color:#438990"/>
		</linearGradient>
		<polygon fill="url(#SVGID_154_)" points="54.2,151.2 57.2,151.2 57.9,150.4 		"/>
		
			<linearGradient id="SVGID_155_" gradientUnits="userSpaceOnUse" x1="-293.0433" y1="480.7164" x2="-292.8896" y2="480.5626" gradientTransform="matrix(134 0 0 -139 39303.9648 66954.0391)">
			<stop  offset="0" style="stop-color:#40878F"/>
			<stop  offset="1" style="stop-color:#2C7889"/>
		</linearGradient>
		<polygon fill="url(#SVGID_155_)" points="48.3,133.3 39.1,151.2 54.2,151.2 57.9,150.4 		"/>
		
			<linearGradient id="SVGID_156_" gradientUnits="userSpaceOnUse" x1="-293.9257" y1="482.9836" x2="-293.7708" y2="482.8287" gradientTransform="matrix(110 0 0 -103 32383.9785 49893.0234)">
			<stop  offset="0" style="stop-color:#4A8D92"/>
			<stop  offset="1" style="stop-color:#3B838E"/>
		</linearGradient>
		<polygon fill="url(#SVGID_156_)" points="57.2,151.2 58.2,151.2 57.9,150.4 		"/>
		
			<linearGradient id="SVGID_157_" gradientUnits="userSpaceOnUse" x1="-292.7631" y1="481.6514" x2="-292.6093" y2="481.4976" gradientTransform="matrix(190 0 0 -111 55670.9609 53598.0234)">
			<stop  offset="0" style="stop-color:#1A6C84"/>
			<stop  offset="1" style="stop-color:#1F7186"/>
		</linearGradient>
		<polygon fill="url(#SVGID_157_)" points="57.9,150.4 77.5,144.4 48.3,133.3 		"/>
		
			<linearGradient id="SVGID_158_" gradientUnits="userSpaceOnUse" x1="-294.0125" y1="481.1018" x2="-293.8587" y2="480.9481" gradientTransform="matrix(127 0 0 -142 37400.9766 68457.0391)">
			<stop  offset="0" style="stop-color:#36808C"/>
			<stop  offset="1" style="stop-color:#267788"/>
		</linearGradient>
		<polygon fill="url(#SVGID_158_)" points="57.9,150.4 58.2,151.2 73.3,151.2 77.5,144.4 		"/>
		
			<linearGradient id="SVGID_159_" gradientUnits="userSpaceOnUse" x1="-301.6594" y1="479.5408" x2="-301.5055" y2="479.387" gradientTransform="matrix(112 0 0 -136 33986.9766 65324.0352)">
			<stop  offset="0" style="stop-color:#0E6786"/>
			<stop  offset="1" style="stop-color:#196382"/>
		</linearGradient>
		<polygon fill="url(#SVGID_159_)" points="204.2,123.7 216,121.7 216,112.8 209.1,102.7 		"/>
		
			<linearGradient id="SVGID_160_" gradientUnits="userSpaceOnUse" x1="-301.6357" y1="491.0047" x2="-301.4819" y2="490.851" gradientTransform="matrix(112 0 0 -32 33986.9766 15833.0039)">
			<stop  offset="0" style="stop-color:#055E82"/>
			<stop  offset="1" style="stop-color:#06547C"/>
		</linearGradient>
		<polygon fill="url(#SVGID_160_)" points="216,125.4 216,121.7 204.2,123.7 		"/>
		
			<linearGradient id="SVGID_161_" gradientUnits="userSpaceOnUse" x1="-304.0951" y1="479.9851" x2="-303.9413" y2="479.8313" gradientTransform="matrix(93 0 0 -117 28489.9805 56261.0352)">
			<stop  offset="0" style="stop-color:#226482"/>
			<stop  offset="1" style="stop-color:#125479"/>
		</linearGradient>
		<polygon fill="url(#SVGID_161_)" points="216,112.8 216,110 209.1,102.7 		"/>
		
			<linearGradient id="SVGID_162_" gradientUnits="userSpaceOnUse" x1="-300.8878" y1="474.8399" x2="-300.734" y2="474.686" gradientTransform="matrix(82 0 0 -104 24806.9805 49383.0234)">
			<stop  offset="0" style="stop-color:#9EDBA7"/>
			<stop  offset="1" style="stop-color:#95D5A6"/>
		</linearGradient>
		<polygon fill="url(#SVGID_162_)" points="147.6,2.8 139.8,0 135.8,0 135,14.6 		"/>
		
			<linearGradient id="SVGID_163_" gradientUnits="userSpaceOnUse" x1="-293.4369" y1="475.5754" x2="-293.2831" y2="475.4216" gradientTransform="matrix(132 0 0 -188 38776.9648 89403.0469)">
			<stop  offset="0" style="stop-color:#8FCDA7"/>
			<stop  offset="1" style="stop-color:#79BA9E"/>
		</linearGradient>
		<polygon fill="url(#SVGID_163_)" points="60.5,0 46,0 47.5,20.2 		"/>
		
			<linearGradient id="SVGID_164_" gradientUnits="userSpaceOnUse" x1="-292.3476" y1="475.571" x2="-292.1938" y2="475.4172" gradientTransform="matrix(248 0 0 -188 72543.9453 89403.0469)">
			<stop  offset="0" style="stop-color:#68AD9A"/>
			<stop  offset="1" style="stop-color:#B1E3A6"/>
		</linearGradient>
		<polygon fill="url(#SVGID_164_)" points="85.6,13.1 73.9,0 60.5,0 47.5,20.2 		"/>
		
			<linearGradient id="SVGID_165_" gradientUnits="userSpaceOnUse" x1="-294.3802" y1="475.1525" x2="-294.2264" y2="474.9987" gradientTransform="matrix(127 0 0 -142 37453.9766 67461.0391)">
			<stop  offset="0" style="stop-color:#ADE2A6"/>
			<stop  offset="1" style="stop-color:#B8E7A7"/>
		</linearGradient>
		<polygon fill="url(#SVGID_165_)" points="80.5,0 73.9,0 85.6,13.1 		"/>
		
			<linearGradient id="SVGID_166_" gradientUnits="userSpaceOnUse" x1="-297.8908" y1="480.1984" x2="-297.7371" y2="480.0446" gradientTransform="matrix(139 0 0 -173 41567.9648 83215.0391)">
			<stop  offset="0" style="stop-color:#023465"/>
			<stop  offset="1" style="stop-color:#021648"/>
		</linearGradient>
		<polygon fill="url(#SVGID_166_)" points="163.2,151.2 176,151.2 161.7,140 		"/>
		
			<linearGradient id="SVGID_167_" gradientUnits="userSpaceOnUse" x1="-297.6689" y1="482.0616" x2="-297.5151" y2="481.9078" gradientTransform="matrix(143 0 0 -110 42731.9648 53164.0234)">
			<stop  offset="0" style="stop-color:#023A6C"/>
			<stop  offset="1" style="stop-color:#02275C"/>
		</linearGradient>
		<polygon fill="url(#SVGID_167_)" points="161.7,140 176,151.2 183.4,151.2 183.7,145.6 		"/>
		
			<linearGradient id="SVGID_168_" gradientUnits="userSpaceOnUse" x1="-320.8665" y1="485.0103" x2="-320.7126" y2="484.8564" gradientTransform="matrix(36 0 0 -73 11733.9961 35552.0195)">
			<stop  offset="0" style="stop-color:#03275F"/>
			<stop  offset="1" style="stop-color:#021F55"/>
		</linearGradient>
		<polygon fill="url(#SVGID_168_)" points="183.4,151.2 187,151.2 183.7,145.6 		"/>
		
			<linearGradient id="SVGID_169_" gradientUnits="userSpaceOnUse" x1="-307.3178" y1="486.6264" x2="-307.1642" y2="486.4728" gradientTransform="matrix(75 0 0 -63 23258.9824 30807.0176)">
			<stop  offset="0" style="stop-color:#021447"/>
			<stop  offset="1" style="stop-color:#02174B"/>
		</linearGradient>
		<polygon fill="url(#SVGID_169_)" points="211,151.2 213.3,151.2 211.1,149.5 		"/>
		
			<linearGradient id="SVGID_170_" gradientUnits="userSpaceOnUse" x1="-304.0648" y1="488.0356" x2="-303.9111" y2="487.882" gradientTransform="matrix(94 0 0 -55 28793.9805 26991.0176)">
			<stop  offset="0" style="stop-color:#021C50"/>
			<stop  offset="1" style="stop-color:#021548"/>
		</linearGradient>
		<polygon fill="url(#SVGID_170_)" points="211.1,149.5 213.3,151.2 216,151.2 216,150.1 		"/>
		
			<linearGradient id="SVGID_171_" gradientUnits="userSpaceOnUse" x1="-294.6713" y1="480.9764" x2="-294.5175" y2="480.8226" gradientTransform="matrix(211 0 0 -140 62308.957 67474.0391)">
			<stop  offset="0" style="stop-color:#021B4D"/>
			<stop  offset="1" style="stop-color:#022555"/>
		</linearGradient>
		<polygon fill="url(#SVGID_171_)" points="129.7,151.2 159.3,151.2 161.7,140 		"/>
		
			<linearGradient id="SVGID_172_" gradientUnits="userSpaceOnUse" x1="-308.5494" y1="480.2201" x2="-308.3957" y2="480.0663" gradientTransform="matrix(53 0 0 -173 16510.9844 83215.0391)">
			<stop  offset="0" style="stop-color:#023061"/>
			<stop  offset="1" style="stop-color:#030D3D"/>
		</linearGradient>
		<polygon fill="url(#SVGID_172_)" points="159.3,151.2 163.2,151.2 161.7,140 		"/>
		
			<linearGradient id="SVGID_173_" gradientUnits="userSpaceOnUse" x1="-295.0192" y1="476.3936" x2="-294.8654" y2="476.2398" gradientTransform="matrix(193 0 0 -213 57068.957 101486.0547)">
			<stop  offset="0" style="stop-color:#B5E7A6"/>
			<stop  offset="1" style="stop-color:#A7E0A6"/>
		</linearGradient>
		<polygon fill="url(#SVGID_173_)" points="158.7,15.5 129,25.1 133.9,48.3 		"/>
		
			<linearGradient id="SVGID_174_" gradientUnits="userSpaceOnUse" x1="-295.0293" y1="475.0026" x2="-294.8755" y2="474.8488" gradientTransform="matrix(193 0 0 -68 57068.957 32315.0176)">
			<stop  offset="0" style="stop-color:#ADE2A6"/>
			<stop  offset="1" style="stop-color:#9DDAA6"/>
		</linearGradient>
		<polygon fill="url(#SVGID_174_)" points="158.7,15.5 135,14.6 129,25.1 		"/>
		
			<linearGradient id="SVGID_175_" gradientUnits="userSpaceOnUse" x1="-294.5535" y1="476.3765" x2="-294.3997" y2="476.2227" gradientTransform="matrix(227 0 0 -213 66994.9453 101486.0547)">
			<stop  offset="0" style="stop-color:#A5DFA6"/>
			<stop  offset="1" style="stop-color:#A7E0A6"/>
		</linearGradient>
		<polygon fill="url(#SVGID_175_)" points="168.8,48.3 158.7,15.5 133.9,48.3 		"/>
		
			<linearGradient id="SVGID_176_" gradientUnits="userSpaceOnUse" x1="-296.2748" y1="474.566" x2="-296.121" y2="474.4123" gradientTransform="matrix(154 0 0 -83 45758.9648 39393.0195)">
			<stop  offset="0" style="stop-color:#9CDAA6"/>
			<stop  offset="1" style="stop-color:#9AD7A5"/>
		</linearGradient>
		<polygon fill="url(#SVGID_176_)" points="147.6,2.8 135,14.6 158.7,15.5 		"/>
		
			<linearGradient id="SVGID_177_" gradientUnits="userSpaceOnUse" x1="-300.9837" y1="474.5904" x2="-300.8299" y2="474.4366" gradientTransform="matrix(88 0 0 -83 26634.9805 39393.0195)">
			<stop  offset="0" style="stop-color:#8ACDA6"/>
			<stop  offset="1" style="stop-color:#8FCEA4"/>
		</linearGradient>
		<polygon fill="url(#SVGID_177_)" points="161.1,10.2 147.6,2.8 158.7,15.5 		"/>
		
			<linearGradient id="SVGID_178_" gradientUnits="userSpaceOnUse" x1="-299.5484" y1="474.5425" x2="-299.3945" y2="474.3886" gradientTransform="matrix(110 0 0 -81 33108.9766 38441.0195)">
			<stop  offset="0" style="stop-color:#5CA098"/>
			<stop  offset="1" style="stop-color:#4E918D"/>
		</linearGradient>
		<polygon fill="url(#SVGID_178_)" points="175.6,3.1 161.1,10.2 158.7,15.5 		"/>
		
			<linearGradient id="SVGID_179_" gradientUnits="userSpaceOnUse" x1="-294.2266" y1="476.3813" x2="-294.0728" y2="476.2275" gradientTransform="matrix(292 0 0 -213 86070.8438 101486.0547)">
			<stop  offset="0" style="stop-color:#A4DEA6"/>
			<stop  offset="1" style="stop-color:#7CBD9D"/>
		</linearGradient>
		<polygon fill="url(#SVGID_179_)" points="168.8,48.3 203.6,28.5 158.7,15.5 		"/>
		
			<linearGradient id="SVGID_180_" gradientUnits="userSpaceOnUse" x1="-294.2238" y1="475.7889" x2="-294.07" y2="475.6352" gradientTransform="matrix(292 0 0 -165 86070.8438 78509.0391)">
			<stop  offset="0" style="stop-color:#1B647F"/>
			<stop  offset="1" style="stop-color:#579D94"/>
		</linearGradient>
		<polygon fill="url(#SVGID_180_)" points="203.6,28.5 175.6,3.1 158.7,15.5 		"/>
		
			<linearGradient id="SVGID_181_" gradientUnits="userSpaceOnUse" x1="-297.9679" y1="470.7258" x2="-297.8141" y2="470.5719" gradientTransform="matrix(117 0 0 -37 34997.9766 17414.0039)">
			<stop  offset="0" style="stop-color:#7BBEA0"/>
			<stop  offset="1" style="stop-color:#5CA198"/>
		</linearGradient>
		<polygon fill="url(#SVGID_181_)" points="150.7,0 139.8,0 147.6,2.8 		"/>
		
			<linearGradient id="SVGID_182_" gradientUnits="userSpaceOnUse" x1="-300.9961" y1="474.2673" x2="-300.8423" y2="474.1135" gradientTransform="matrix(88 0 0 -85 26634.9805 40310.0195)">
			<stop  offset="0" style="stop-color:#69AC9C"/>
			<stop  offset="1" style="stop-color:#519694"/>
		</linearGradient>
		<polygon fill="url(#SVGID_182_)" points="161.1,10.2 155.5,0 150.7,0 147.6,2.8 		"/>
		
			<linearGradient id="SVGID_183_" gradientUnits="userSpaceOnUse" x1="-300.5331" y1="474.9821" x2="-300.3793" y2="474.8283" gradientTransform="matrix(96 0 0 -138 29003.9785 65538.0391)">
			<stop  offset="0" style="stop-color:#448E90"/>
			<stop  offset="1" style="stop-color:#165C7B"/>
		</linearGradient>
		<polygon fill="url(#SVGID_183_)" points="164.7,0 155.5,0 161.1,10.2 		"/>
		
			<linearGradient id="SVGID_184_" gradientUnits="userSpaceOnUse" x1="-290.5533" y1="477.3489" x2="-290.3987" y2="477.1944" gradientTransform="matrix(172 0 0 -72 49962.9609 34407.0195)">
			<stop  offset="0" style="stop-color:#04597D"/>
			<stop  offset="1" style="stop-color:#126181"/>
		</linearGradient>
		<polygon fill="url(#SVGID_184_)" points="0,43.3 0,44.1 2.4,42.9 		"/>
		
			<linearGradient id="SVGID_185_" gradientUnits="userSpaceOnUse" x1="-290.5898" y1="476.5543" x2="-290.436" y2="476.4005" gradientTransform="matrix(172 0 0 -110 49962.9609 52447.0234)">
			<stop  offset="0" style="stop-color:#37798B"/>
			<stop  offset="1" style="stop-color:#1A6884"/>
		</linearGradient>
		<polygon fill="url(#SVGID_185_)" points="0,32.5 0,43.3 2.4,42.9 		"/>
		
			<linearGradient id="SVGID_186_" gradientUnits="userSpaceOnUse" x1="-295.7869" y1="477.2261" x2="-295.6331" y2="477.0723" gradientTransform="matrix(148 0 0 -176 43889.9648 84042.0391)">
			<stop  offset="0" style="stop-color:#C6EFA7"/>
			<stop  offset="1" style="stop-color:#9ED9A7"/>
		</linearGradient>
		<polygon fill="url(#SVGID_186_)" points="125,47.1 116.1,74.1 138.8,59.5 		"/>
		
			<linearGradient id="SVGID_187_" gradientUnits="userSpaceOnUse" x1="-295.751" y1="477.6247" x2="-295.5972" y2="477.4709" gradientTransform="matrix(148 0 0 -184 43889.9648 87939.0469)">
			<stop  offset="0" style="stop-color:#CAF2A6"/>
			<stop  offset="1" style="stop-color:#B1E5A6"/>
		</linearGradient>
		<polygon fill="url(#SVGID_187_)" points="116.1,74.1 137,87.8 138.8,59.5 		"/>
		
			<linearGradient id="SVGID_188_" gradientUnits="userSpaceOnUse" x1="-299.3675" y1="477.5509" x2="-299.2137" y2="477.3972" gradientTransform="matrix(90 0 0 -81 27069.9805 38727.0195)">
			<stop  offset="0" style="stop-color:#8BCCA7"/>
			<stop  offset="1" style="stop-color:#97D6A6"/>
		</linearGradient>
		<polygon fill="url(#SVGID_188_)" points="133.9,48.3 125,47.1 138.8,59.5 		"/>
		
			<linearGradient id="SVGID_189_" gradientUnits="userSpaceOnUse" x1="-294.5369" y1="477.6868" x2="-294.3831" y2="477.533" gradientTransform="matrix(227 0 0 -73 66994.9453 34919.0195)">
			<stop  offset="0" style="stop-color:#A7E0A6"/>
			<stop  offset="1" style="stop-color:#A2DDA6"/>
		</linearGradient>
		<polygon fill="url(#SVGID_189_)" points="138.8,59.5 168.8,48.3 133.9,48.3 		"/>
		
			<linearGradient id="SVGID_190_" gradientUnits="userSpaceOnUse" x1="-296.3188" y1="477.5844" x2="-296.1651" y2="477.4306" gradientTransform="matrix(155 0 0 -184 46062.9648 87939.0469)">
			<stop  offset="0" style="stop-color:#BAE9A6"/>
			<stop  offset="1" style="stop-color:#A2DCA6"/>
		</linearGradient>
		<polygon fill="url(#SVGID_190_)" points="138.8,59.5 137,87.8 160.8,75.7 		"/>
		
			<linearGradient id="SVGID_191_" gradientUnits="userSpaceOnUse" x1="-295.9974" y1="478.0719" x2="-295.8437" y2="477.9181" gradientTransform="matrix(166 0 0 -105 49275.9609 50256.0234)">
			<stop  offset="0" style="stop-color:#91D0A7"/>
			<stop  offset="1" style="stop-color:#89C9A6"/>
		</linearGradient>
		<polygon fill="url(#SVGID_191_)" points="164.4,69.4 138.8,59.5 160.8,75.7 		"/>
		
			<linearGradient id="SVGID_192_" gradientUnits="userSpaceOnUse" x1="-295.2443" y1="477.3811" x2="-295.0905" y2="477.2273" gradientTransform="matrix(195 0 0 -137 57714.957 65447.0352)">
			<stop  offset="0" style="stop-color:#8ECDA5"/>
			<stop  offset="1" style="stop-color:#9FDCA6"/>
		</linearGradient>
		<polygon fill="url(#SVGID_192_)" points="164.4,69.4 168.8,48.3 138.8,59.5 		"/>
		
			<linearGradient id="SVGID_193_" gradientUnits="userSpaceOnUse" x1="-294.2733" y1="478.8427" x2="-294.1195" y2="478.689" gradientTransform="matrix(170 0 0 -106 50121.9609 50828.0234)">
			<stop  offset="0" style="stop-color:#C9F1A6"/>
			<stop  offset="1" style="stop-color:#CEF4A6"/>
		</linearGradient>
		<polygon fill="url(#SVGID_193_)" points="89.9,76.6 115,90.4 116.1,74.1 		"/>
		
			<linearGradient id="SVGID_194_" gradientUnits="userSpaceOnUse" x1="-293.0781" y1="481.0609" x2="-292.9243" y2="480.9071" gradientTransform="matrix(192 0 0 -50 56331.957 24129.0156)">
			<stop  offset="0" style="stop-color:#8DCDA6"/>
			<stop  offset="1" style="stop-color:#A7DCA6"/>
		</linearGradient>
		<polygon fill="url(#SVGID_194_)" points="64.6,83.8 89.9,76.6 60.4,76.1 		"/>
		
			<linearGradient id="SVGID_195_" gradientUnits="userSpaceOnUse" x1="-293.0809" y1="478.7878" x2="-292.9271" y2="478.6341" gradientTransform="matrix(192 0 0 -78 56331.957 37410.0195)">
			<stop  offset="0" style="stop-color:#ABE3A6"/>
			<stop  offset="1" style="stop-color:#CCF3A6"/>
		</linearGradient>
		<polygon fill="url(#SVGID_195_)" points="60.4,76.1 89.9,76.6 89,64.6 		"/>
		
			<linearGradient id="SVGID_196_" gradientUnits="userSpaceOnUse" x1="-293.5387" y1="478.9594" x2="-293.3849" y2="478.8056" gradientTransform="matrix(165 0 0 -106 48501.9609 50844.0234)">
			<stop  offset="0" style="stop-color:#95D3A6"/>
			<stop  offset="1" style="stop-color:#A2DBA6"/>
		</linearGradient>
		<polygon fill="url(#SVGID_196_)" points="64.6,83.8 85.5,92.9 89.9,76.6 		"/>
		
			<linearGradient id="SVGID_197_" gradientUnits="userSpaceOnUse" x1="-293.8322" y1="478.9055" x2="-293.6784" y2="478.7516" gradientTransform="matrix(192 0 0 -106 56494.957 50844.0234)">
			<stop  offset="0" style="stop-color:#9DDBA6"/>
			<stop  offset="1" style="stop-color:#C1EDA7"/>
		</linearGradient>
		<polygon fill="url(#SVGID_197_)" points="85.5,92.9 115,90.4 89.9,76.6 		"/>
		
			<linearGradient id="SVGID_198_" gradientUnits="userSpaceOnUse" x1="-315.2067" y1="478.4978" x2="-315.0529" y2="478.344" gradientTransform="matrix(23 0 0 -88 7339 42170.0195)">
			<stop  offset="0" style="stop-color:#CEF4A7"/>
			<stop  offset="1" style="stop-color:#CFF5A7"/>
		</linearGradient>
		<polygon fill="url(#SVGID_198_)" points="89,64.6 89.9,76.6 92.5,63.1 		"/>
		
			<linearGradient id="SVGID_199_" gradientUnits="userSpaceOnUse" x1="-294.3377" y1="478.4568" x2="-294.1839" y2="478.303" gradientTransform="matrix(170 0 0 -88 50121.9609 42170.0195)">
			<stop  offset="0" style="stop-color:#CEF5A7"/>
			<stop  offset="1" style="stop-color:#CEF4A6"/>
		</linearGradient>
		<polygon fill="url(#SVGID_199_)" points="89.9,76.6 116.1,74.1 92.5,63.1 		"/>
		
			<linearGradient id="SVGID_200_" gradientUnits="userSpaceOnUse" x1="-294.81" y1="475.7973" x2="-294.6563" y2="475.6435" gradientTransform="matrix(138 0 0 -123 40761.9648 58540.0352)">
			<stop  offset="0" style="stop-color:#A0DAA7"/>
			<stop  offset="1" style="stop-color:#A8E0A6"/>
		</linearGradient>
		<polygon fill="url(#SVGID_200_)" points="103.8,32 85.6,13.1 82.5,31.4 		"/>
		
			<linearGradient id="SVGID_201_" gradientUnits="userSpaceOnUse" x1="-294.7552" y1="476.6014" x2="-294.6015" y2="476.4476" gradientTransform="matrix(138 0 0 -103 40761.9648 49119.0234)">
			<stop  offset="0" style="stop-color:#A6DCA6"/>
			<stop  offset="1" style="stop-color:#98D6A6"/>
		</linearGradient>
		<polygon fill="url(#SVGID_201_)" points="103.8,32 82.5,31.4 95.9,47.2 		"/>
		
			<linearGradient id="SVGID_202_" gradientUnits="userSpaceOnUse" x1="-295.5356" y1="475.8949" x2="-295.3819" y2="475.7411" gradientTransform="matrix(118 0 0 -140 34961.9766 66632.0391)">
			<stop  offset="0" style="stop-color:#BFECA6"/>
			<stop  offset="1" style="stop-color:#B5E7A6"/>
		</linearGradient>
		<polygon fill="url(#SVGID_202_)" points="100.4,10.5 85.6,13.1 103.8,32 		"/>
		
			<linearGradient id="SVGID_203_" gradientUnits="userSpaceOnUse" x1="-302.6677" y1="476.5961" x2="-302.5139" y2="476.4423" gradientTransform="matrix(51 0 0 -99 15531.9854 47215.0234)">
			<stop  offset="0" style="stop-color:#99D5A7"/>
			<stop  offset="1" style="stop-color:#AAE0A6"/>
		</linearGradient>
		<polygon fill="url(#SVGID_203_)" points="101.5,46.5 103.8,32 95.9,47.2 		"/>
		
			<linearGradient id="SVGID_204_" gradientUnits="userSpaceOnUse" x1="-298.4649" y1="475.8689" x2="-298.3111" y2="475.7151" gradientTransform="matrix(83 0 0 -140 24872.9805 66632.0391)">
			<stop  offset="0" style="stop-color:#C2EDA6"/>
			<stop  offset="1" style="stop-color:#B6E7A6"/>
		</linearGradient>
		<polygon fill="url(#SVGID_204_)" points="113.2,16 100.4,10.5 103.8,32 		"/>
		
			<linearGradient id="SVGID_205_" gradientUnits="userSpaceOnUse" x1="-301.0895" y1="476.524" x2="-300.9357" y2="476.3702" gradientTransform="matrix(62 0 0 -107 18768.9824 51018.0234)">
			<stop  offset="0" style="stop-color:#9ED8A6"/>
			<stop  offset="1" style="stop-color:#A0DBA6"/>
		</linearGradient>
		<polygon fill="url(#SVGID_205_)" points="111,30 103.8,32 101.5,46.5 		"/>
		
			<linearGradient id="SVGID_206_" gradientUnits="userSpaceOnUse" x1="-301.4626" y1="475.7695" x2="-301.3088" y2="475.6157" gradientTransform="matrix(61 0 0 -104 18492.9844 49496.0234)">
			<stop  offset="0" style="stop-color:#BBEAA7"/>
			<stop  offset="1" style="stop-color:#B4E6A6"/>
		</linearGradient>
		<polygon fill="url(#SVGID_206_)" points="113.2,16 103.8,32 111,30 		"/>
	</g>
</g>
</svg>
