<?xml version="1.0" encoding="utf-8"?>
<!-- Generator: Adobe Illustrator 22.0.1, SVG Export Plug-In . SVG Version: 6.00 Build 0)  -->
<svg version="1.1" id="Laag_1" xmlns="http://www.w3.org/2000/svg" xmlns:xlink="http://www.w3.org/1999/xlink" x="0px" y="0px"
	 viewBox="0 0 800 400" enable-background="new 0 0 800 400" xml:space="preserve">
<g>
	<g>
		<path fill="#00AEEF" d="M10.8,63.1c0-6.6,2.1-11.9,6.2-16.1c4.2-4.2,9.5-6.2,16.1-6.2H62V67H44.3c-3.9,0-5.9,2.2-5.9,6.6v155.8
			c0,4.4,2,6.6,5.9,6.6H62v26.3H33.1c-6.6,0-11.9-2.1-16.1-6.2c-4.2-4.2-6.2-9.5-6.2-16.1V63.1z"/>
		<path fill="#005EBD" d="M103.1,200.5h14.4v-98h-14.4V74.9h67.2c7.3,0,13.7,1,19.4,3.1c5.6,2,10.4,4.8,14.2,8.3
			c3.9,3.5,6.8,7.7,8.8,12.6c2,4.9,3,10.2,3,15.9v2.6c0,8.8-2.4,15.8-7.3,21c-4.9,5.3-11.1,8.9-18.5,10.9v3.9
			c7.4,2,13.6,5.7,18.5,11.1c4.9,5.3,7.3,12.4,7.3,21.1v2.6c0,5.7-1,11-3,15.9s-4.9,9.1-8.8,12.7c-3.9,3.6-8.6,6.4-14.2,8.4
			c-5.6,2-12.1,3.1-19.4,3.1h-67.2V200.5z M146.4,137.5h21c6.1,0,11.1-1.3,14.9-3.8c3.8-2.6,5.7-6.9,5.7-13v-1.3
			c0-6.1-1.9-10.5-5.7-13c-3.8-2.6-8.8-3.8-14.9-3.8h-21V137.5z M146.4,200.5h21c6.1,0,11.1-1.3,14.9-3.9c3.8-2.6,5.7-7,5.7-13.1
			v-1.3c0-6.1-1.9-10.5-5.7-13.1s-8.8-3.9-14.9-3.9h-21V200.5z"/>
		<path fill="#005EBD" d="M320,195.2h-52.1l-7.4,32.8h-30.2l36.5-153.2h54.3L357.6,228h-30.2L320,195.2z M274,167.7h39.6l-17.7-78.3
			H292L274,167.7z"/>
		<path fill="#005EBD" d="M479.7,228h-28.9v-46c0-3.5-0.9-6.3-2.7-8.5c-1.8-2.2-4.9-3.3-9.1-3.3h-33.3V228h-28.9V74.9h58.6
			c7.9,0,14.8,1.1,20.8,3.3s11,5.2,15,9.1c4,3.9,7.1,8.4,9.2,13.5s3.2,10.6,3.2,16.4v5.3c0,6.3-1.7,12.1-5,17.6
			c-3.4,5.5-8.5,9.7-15.5,12.6v3.9c5.1,0.6,9.2,2.6,12.1,5.9c3,3.4,4.5,7.6,4.5,12.7L479.7,228L479.7,228z M405.7,142.7h27.6
			c7,0,12.3-1.6,16-4.9c3.6-3.3,5.5-7.9,5.5-13.9v-2.6c0-5.1-1.8-9.5-5.5-13.2c-3.6-3.7-9-5.6-16-5.6h-27.6V142.7z"/>
		<path fill="#005EBD" d="M512.7,74.9h96.7v27.6h-67.8v35h65.2V165h-65.2v35.4h70.5V228h-99.3L512.7,74.9L512.7,74.9z"/>
		<path fill="#00AEEF" d="M711,239.9c0,6.6-2.1,11.9-6.2,16.1c-4.2,4.2-9.5,6.2-16.1,6.2h-28.9v-26.3h17.7c3.9,0,5.9-2.2,5.9-6.6
			V73.6c0-4.4-2-6.6-5.9-6.6h-17.7V40.7h28.9c6.6,0,11.9,2.1,16.1,6.2c4.2,4.2,6.2,9.5,6.2,16.1V239.9z"/>
	</g>
	<g>
		<g>
			<path fill="#C6994A" d="M24.9,300.5v21.3h29.8v7.5H24.9V359h-8v-66h46.2v7.5H24.9z"/>
			<path fill="#C6994A" d="M109.2,331.6H93.4V359h-8v-66h25c6.7,0,12.1,1.7,16.2,5.2c4.1,3.5,6.1,8.2,6.1,14.1
				c0,4.7-1.3,8.6-3.9,11.8c-2.6,3.2-6.2,5.4-10.7,6.6l18.6,28.3h-9.5L109.2,331.6z M93.4,324.1h16.9c9.3,0,14-3.9,14-11.8
				c0-7.9-4.7-11.8-14-11.8H93.4V324.1z"/>
			<path fill="#C6994A" d="M196.5,340.7h-29.9l-7,18.3h-8.4l25.7-66h9.5l25.6,66h-8.5L196.5,340.7z M193.6,333.2l-8.9-23.4l-3.1-9.2
				h-0.2l-2.9,8.9l-9,23.7H193.6z"/>
			<path fill="#C6994A" d="M296.7,359h-7.6v-41.5l0.9-17.4h-0.1L268.2,359h-6.8l-21.7-58.9h-0.1l0.9,17.4V359h-7.6v-66h12.3
				l14.5,40.1l5,16.5h0.2l5.1-16.4l14.4-40.2h12.3L296.7,359L296.7,359z"/>
			<path fill="#C6994A" d="M373.6,351.5v7.5h-47.8v-66h46.3v7.5h-38.3v21.3h29.8v7.5h-29.8v22.2H373.6z"/>
			<path fill="#C6994A" d="M419.3,359h-9.9l-19.5-66h8.6l15.9,59.7L430,293h9.1l15.6,59.9l16-59.9h8.1l-19.4,66h-9.9l-11.7-42.8
				l-3.4-14.9h-0.1l-3.4,14.9L419.3,359z"/>
			<path fill="#C6994A" d="M542.7,296.1c4.6,2.8,8.2,6.7,10.7,11.8s3.8,11.1,3.8,18s-1.3,13-3.8,18c-2.5,5.1-6,9-10.7,11.8
				c-4.6,2.8-10,4.1-16.2,4.1s-11.6-1.4-16.2-4.1c-4.6-2.8-8.2-6.7-10.7-11.8s-3.8-11.1-3.8-18s1.3-13,3.8-18c2.5-5.1,6-9,10.7-11.8
				c4.6-2.8,10-4.1,16.2-4.1S538.1,293.4,542.7,296.1z M510.3,306.5c-4,4.7-6,11.2-6,19.5s2,14.8,6,19.5s9.4,7,16.3,7
				s12.3-2.4,16.3-7c4-4.7,5.9-11.2,5.9-19.5s-2-14.8-5.9-19.5c-4-4.7-9.4-7-16.3-7C519.7,299.5,514.2,301.9,510.3,306.5z"/>
			<path fill="#C6994A" d="M606,331.6h-15.8V359h-8v-66h25c6.7,0,12.1,1.7,16.2,5.2s6.1,8.2,6.1,14.1c0,4.7-1.3,8.6-3.9,11.8
				s-6.2,5.4-10.7,6.6l18.6,28.3H624L606,331.6z M590.2,324.1h16.9c9.3,0,14-3.9,14-11.8c0-7.9-4.7-11.8-14-11.8h-16.9V324.1z"/>
			<path fill="#C6994A" d="M676,325.8l-11.8,12V359h-8v-66h8v34l33.2-34h10.5l-26.3,26.9l26.6,39.1h-9.6L676,325.8z"/>
		</g>
	</g>
</g>
<g enable-background="new    ">
	<path fill="#C6994A" d="M744.6,113.2c9.1-6.7,16.1-12.3,21-16.7s8.4-8.3,10.5-11.9c2.1-3.6,3.1-7.3,3.1-11.3c0-3.9-1.3-7.1-3.8-9.5
		s-5.9-3.7-10.2-3.7c-4.5,0-8.1,1.5-10.9,4.4s-4.4,6.9-4.8,11.9l-7-4.2c0.9-5.9,3.3-10.7,7.3-14.3s9.2-5.3,15.8-5.3
		c4.4,0,8.3,0.9,11.7,2.6c3.4,1.7,5.9,4.2,7.8,7.3c1.8,3.1,2.7,6.7,2.7,10.8c0,4.3-1,8.4-3,12.3c-2,3.9-5.4,8.1-10,12.4
		c-4.6,4.3-10.8,9.1-18.6,14.3v0.1c4.4-0.2,7.7-0.3,9.9-0.3h23.1v7.5h-44.4v-6.4H744.6z"/>
</g>
</svg>
